32    1    3502.39
32    1.5    3498.94
32    2    3495.22
32    2.5    3491.24
32    3    3486.99
32    3.5    3482.47
32    4    3477.69
32    4.5    3472.64
32    5    3467.33
32    5.5    3461.76
32    6    3455.92
32    6.5    3449.82
32    7    3443.45
32    7.5    3436.83
32    8    3429.94
32    8.5    3422.79
32    9    3415.38
32    9.5    3407.71
32    10    3399.78
32    10.5    3391.59
32    11    3383.14
32    11.5    3374.44
32    12    3365.48
32    12.5    3356.26
32    13    3346.79
32    13.5    3337.06
32    14    3327.07
32    14.5    3316.84
32    15    3306.35
32    15.5    3295.61
32    16    3284.62
32    16.5    3273.38
32    17    3261.89
32    17.5    3250.15
32    18    3238.16
32    18.5    3225.93
32    19    3213.45
32    19.5    3200.73
32    20    3187.76
32    20.5    3174.55
32    21    3161.1
32    21.5    3147.4
32    22    3133.47
32    22.5    3119.3
32    23    3104.89
32    23.5    3090.25
32    24    3075.37
32    24.5    3060.25
32    25    3044.91
32    25.5    3029.33
32    26    3013.52
32    26.5    2997.48
32    27    2981.21
32    27.5    2964.71
32    28    2947.99
32    28.5    2931.05
32    29    2913.88
32    29.5    2896.49
32    30    2878.88
32    30.5    2861.05
32    31    2843
32    31.5    2824.74
32    32    2806.26
32    32.5    2787.56
32    33    2768.66
32    33.5    2749.54
32    34    2730.22
32    34.5    2710.68
32    35    2690.94
32    35.5    2671
32    36    2650.85
32    36.5    2630.5
32    37    2609.95
32    37.5    2589.2
32    38    2568.25
32    38.5    2547.11
32    39    2525.78
32    39.5    2504.25
32    40    2482.53
32    40.5    2460.62
32    41    2438.52
32    41.5    2416.24
32    42    2393.78
32    42.5    2371.13
32    43    2348.3
32    43.5    2325.29
32    44    2302.11
32    44.5    2278.75
32    45    2255.22
32    45.5    2231.51
32    46    2207.64
32    46.5    2183.6
32    47    2159.39
32    47.5    2135.01
32    48    2110.48
32    48.5    2085.78
32    49    2060.93
32    49.5    2035.91
32    50    2010.75
32    50.5    1985.42
32    51    1959.95
32    51.5    1934.33
32    52    1908.56
32    52.5    1882.65
32    53    1856.59
32    53.5    1830.39
32    54    1804.06
32    54.5    1777.58
32    55    1750.97
32    55.5    1724.22
32    56    1697.35
32    56.5    1670.34
32    57    1643.21
32    57.5    1615.96
32    58    1588.58
32    58.5    1561.07
32    59    1533.46
32    59.5    1505.72
32    60    1477.87
32    60.5    1449.9
32    61    1421.83
32    61.5    1393.65
32    62    1365.36
32    62.5    1336.96
32    63    1308.47
32    63.5    1279.88
32    64    1251.18
32    64.5    1222.4
32    65    1193.52
32    65.5    1164.55
32    66    1135.49
32    66.5    1106.34
32    67    1077.11
32    67.5    1047.8
32    68    1018.41
32    68.5    988.937
32    69    959.392
32    69.5    929.774
32    70    900.085
32    70.5    870.327
32    71    840.504
32    71.5    810.616
32    72    780.667
32    72.5    750.658
32    73    720.592
32    73.5    690.471
32    74    660.297
32    74.5    630.074
32    75    599.802
32    75.5    569.484
32    76    539.124
32    76.5    508.722
32    77    478.281
32    77.5    447.804
32    78    417.293
32    78.5    386.75
32    79    356.178
32    79.5    325.578
32    80    294.954
32    80.5    264.307
32    81    233.64
32    81.5    202.956
32    82    172.256
32    82.5    141.542
32    83    110.818
32    83.5    80.086
32    84    49.3475
32    84.5    18.6051
32    85    -12.1386
32    85.5    -42.8814
32    86    -73.6209
32    86.5    -104.355
32    87    -135.081
32    87.5    -165.796
32    88    -196.5
32    88.5    -227.188
32    89    -257.858
32    89.5    -288.51
32    90    -319.139
32    90.5    -349.744
32    91    -380.322
32    91.5    -410.871
32    92    -441.389
32    92.5    -471.874
32    93    -502.322
32    93.5    -532.732
32    94    -563.102
32    94.5    -593.429
32    95    -623.71
32    95.5    -653.944
32    96    -684.129
32    96.5    -714.261
32    97    -744.338
32    97.5    -774.36
32    98    -804.322
32    98.5    -834.222
32    99    -864.06
32    99.5    -893.831
32    100    -923.535
32    100.5    -953.168
32    101    -982.728
32    101.5    -1012.21
32    102    -1041.62
32    102.5    -1070.95
32    103    -1100.2
32    103.5    -1129.36
32    104    -1158.44
32    104.5    -1187.43
32    105    -1216.33
32    105.5    -1245.14
32    106    -1273.85
32    106.5    -1302.46
32    107    -1330.98
32    107.5    -1359.39
32    108    -1387.7
32    108.5    -1415.91
32    109    -1444.01
32    109.5    -1471.99
32    110    -1499.87
32    110.5    -1527.63
32    111    -1555.28
32    111.5    -1582.8
32    112    -1610.21
32    112.5    -1637.49
32    113    -1664.65
32    113.5    -1691.68
32    114    -1718.58
32    114.5    -1745.35
32    115    -1771.99
32    115.5    -1798.5
32    116    -1824.86
32    116.5    -1851.09
32    117    -1877.18
32    117.5    -1903.12
32    118    -1928.92
32    118.5    -1954.58
32    119    -1980.08
32    119.5    -2005.43
32    120    -2030.63
32    120.5    -2055.68
32    121    -2080.57
32    121.5    -2105.3
32    122    -2129.87
32    122.5    -2154.27
32    123    -2178.52
32    123.5    -2202.6
32    124    -2226.51
32    124.5    -2250.25
32    125    -2273.82
32    125.5    -2297.21
32    126    -2320.43
32    126.5    -2343.48
32    127    -2366.34
32    127.5    -2389.03
32    128    -2411.53
32    128.5    -2433.85
32    129    -2455.99
32    129.5    -2477.93
32    130    -2499.69
32    130.5    -2521.26
32    131    -2542.64
32    131.5    -2563.82
32    132    -2584.81
32    132.5    -2605.6
32    133    -2626.19
32    133.5    -2646.59
32    134    -2666.78
32    134.5    -2686.77
32    135    -2706.55
32    135.5    -2726.13
32    136    -2745.5
32    136.5    -2764.66
32    137    -2783.61
32    137.5    -2802.34
32    138    -2820.87
32    138.5    -2839.18
32    139    -2857.27
32    139.5    -2875.15
32    140    -2892.8
32    140.5    -2910.24
32    141    -2927.46
32    141.5    -2944.45
32    142    -2961.22
32    142.5    -2977.76
32    143    -2994.07
32    143.5    -3010.16
32    144    -3026.02
32    144.5    -3041.65
32    145    -3057.04
32    145.5    -3072.21
32    146    -3087.14
32    146.5    -3101.83
32    147    -3116.29
32    147.5    -3130.51
32    148    -3144.49
32    148.5    -3158.24
32    149    -3171.74
32    149.5    -3185
32    150    -3198.02
32    150.5    -3210.79
32    151    -3223.32
32    151.5    -3235.61
32    152    -3247.65
32    152.5    -3259.44
32    153    -3270.98
32    153.5    -3282.28
32    154    -3293.32
32    154.5    -3304.11
32    155    -3314.65
32    155.5    -3324.94
32    156    -3334.98
32    156.5    -3344.76
32    157    -3354.29
32    157.5    -3363.56
32    158    -3372.57
32    158.5    -3381.33
32    159    -3389.83
32    159.5    -3398.08
32    160    -3406.06
32    160.5    -3413.79
32    161    -3421.25
32    161.5    -3428.46
32    162    -3435.4
32    162.5    -3442.08
32    163    -3448.5
32    163.5    -3454.66
32    164    -3460.55
32    164.5    -3466.18
32    165    -3471.55
32    165.5    -3476.65
32    166    -3481.49
32    166.5    -3486.06
32    167    -3490.37
32    167.5    -3494.41
32    168    -3498.18
32    168.5    -3501.69
32    169    -3504.93
32    169.5    -3507.91
32    170    -3510.61
32    170.5    -3513.05
32    171    -3515.23
32    171.5    -3517.13
32    172    -3518.77
32    172.5    -3520.14
32    173    -3521.24
32    173.5    -3522.07
32    174    -3522.64
32    174.5    -3522.93
32    175    -3522.96
32    175.5    -3522.72
32    176    -3522.21
32    176.5    -3521.44
32    177    -3520.39
32    177.5    -3519.08
32    178    -3517.5
32    178.5    -3515.65
32    179    -3513.53
32    179.5    -3511.15
32    180    -3508.5
32    180.5    -3505.58
32    181    -3502.39
32    181.5    -3498.94
32    182    -3495.22
32    182.5    -3491.24
32    183    -3486.99
32    183.5    -3482.47
32    184    -3477.69
32    184.5    -3472.64
32    185    -3467.33
32    185.5    -3461.76
32    186    -3455.92
32    186.5    -3449.82
32    187    -3443.45
32    187.5    -3436.83
32    188    -3429.94
32    188.5    -3422.79
32    189    -3415.38
32    189.5    -3407.71
32    190    -3399.78
32    190.5    -3391.59
32    191    -3383.14
32    191.5    -3374.44
32    192    -3365.48
32    192.5    -3356.26
32    193    -3346.79
32    193.5    -3337.06
32    194    -3327.07
32    194.5    -3316.84
32    195    -3306.35
32    195.5    -3295.61
32    196    -3284.62
32    196.5    -3273.38
32    197    -3261.89
32    197.5    -3250.15
32    198    -3238.16
32    198.5    -3225.93
32    199    -3213.45
32    199.5    -3200.73
32    200    -3187.76
32    200.5    -3174.55
32    201    -3161.1
32    201.5    -3147.4
32    202    -3133.47
32    202.5    -3119.3
32    203    -3104.89
32    203.5    -3090.25
32    204    -3075.37
32    204.5    -3060.25
32    205    -3044.91
32    205.5    -3029.33
32    206    -3013.52
32    206.5    -2997.48
32    207    -2981.21
32    207.5    -2964.71
32    208    -2947.99
32    208.5    -2931.05
32    209    -2913.88
32    209.5    -2896.49
32    210    -2878.88
32    210.5    -2861.05
32    211    -2843
32    211.5    -2824.74
32    212    -2806.26
32    212.5    -2787.56
32    213    -2768.66
32    213.5    -2749.54
32    214    -2730.22
32    214.5    -2710.68
32    215    -2690.94
32    215.5    -2671
32    216    -2650.85
32    216.5    -2630.5
32    217    -2609.95
32    217.5    -2589.2
32    218    -2568.25
32    218.5    -2547.11
32    219    -2525.78
32    219.5    -2504.25
32    220    -2482.53
32    220.5    -2460.62
32    221    -2438.52
32    221.5    -2416.24
32    222    -2393.78
32    222.5    -2371.13
32    223    -2348.3
32    223.5    -2325.29
32    224    -2302.11
32    224.5    -2278.75
32    225    -2255.22
32    225.5    -2231.51
32    226    -2207.64
32    226.5    -2183.6
32    227    -2159.39
32    227.5    -2135.01
32    228    -2110.48
32    228.5    -2085.78
32    229    -2060.93
32    229.5    -2035.91
32    230    -2010.75
32    230.5    -1985.42
32    231    -1959.95
32    231.5    -1934.33
32    232    -1908.56
32    232.5    -1882.65
32    233    -1856.59
32    233.5    -1830.39
32    234    -1804.06
32    234.5    -1777.58
32    235    -1750.97
32    235.5    -1724.23
32    236    -1697.35
32    236.5    -1670.35
32    237    -1643.21
32    237.5    -1615.96
32    238    -1588.58
32    238.5    -1561.08
32    239    -1533.46
32    239.5    -1505.72
32    240    -1477.87
32    240.5    -1449.9
32    241    -1421.83
32    241.5    -1393.65
32    242    -1365.36
32    242.5    -1336.97
32    243    -1308.47
32    243.5    -1279.88
32    244    -1251.18
32    244.5    -1222.4
32    245    -1193.52
32    245.5    -1164.55
32    246    -1135.49
32    246.5    -1106.34
32    247    -1077.11
32    247.5    -1047.8
32    248    -1018.41
32    248.5    -988.937
32    249    -959.392
32    249.5    -929.774
32    250    -900.085
32    250.5    -870.328
32    251    -840.504
32    251.5    -810.616
32    252    -780.667
32    252.5    -750.658
32    253    -720.592
32    253.5    -690.471
32    254    -660.298
32    254.5    -630.074
32    255    -599.802
32    255.5    -569.485
32    256    -539.124
32    256.5    -508.722
32    257    -478.281
32    257.5    -447.804
32    258    -417.293
32    258.5    -386.75
32    259    -356.178
32    259.5    -325.579
32    260    -294.954
32    260.5    -264.307
32    261    -233.641
32    261.5    -202.956
32    262    -172.256
32    262.5    -141.543
32    263    -110.819
32    263.5    -80.0862
32    264    -49.3476
32    264.5    -18.6053
32    265    12.1384
32    265.5    42.8812
32    266    73.6207
32    266.5    104.355
32    267    135.081
32    267.5    165.796
32    268    196.499
32    268.5    227.187
32    269    257.858
32    269.5    288.509
32    270    319.139
32    270.5    349.744
32    271    380.322
32    271.5    410.871
32    272    441.389
32    272.5    471.873
32    273    502.322
32    273.5    532.732
32    274    563.102
32    274.5    593.428
32    275    623.71
32    275.5    653.944
32    276    684.128
32    276.5    714.26
32    277    744.338
32    277.5    774.359
32    278    804.321
32    278.5    834.222
32    279    864.06
32    279.5    893.831
32    280    923.535
32    280.5    953.168
32    281    982.728
32    281.5    1012.21
32    282    1041.62
32    282.5    1070.95
32    283    1100.2
32    283.5    1129.36
32    284    1158.44
32    284.5    1187.43
32    285    1216.33
32    285.5    1245.14
32    286    1273.85
32    286.5    1302.46
32    287    1330.98
32    287.5    1359.39
32    288    1387.7
32    288.5    1415.91
32    289    1444.01
32    289.5    1471.99
32    290    1499.87
32    290.5    1527.63
32    291    1555.28
32    291.5    1582.8
32    292    1610.21
32    292.5    1637.49
32    293    1664.65
32    293.5    1691.68
32    294    1718.58
32    294.5    1745.35
32    295    1771.99
32    295.5    1798.5
32    296    1824.86
32    296.5    1851.09
32    297    1877.18
32    297.5    1903.12
32    298    1928.92
32    298.5    1954.58
32    299    1980.08
32    299.5    2005.43
32    300    2030.63
32    300.5    2055.68
32    301    2080.57
32    301.5    2105.3
32    302    2129.87
32    302.5    2154.27
32    303    2178.52
32    303.5    2202.6
32    304    2226.51
32    304.5    2250.25
32    305    2273.82
32    305.5    2297.21
32    306    2320.43
32    306.5    2343.48
32    307    2366.34
32    307.5    2389.03
32    308    2411.53
32    308.5    2433.85
32    309    2455.99
32    309.5    2477.93
32    310    2499.69
32    310.5    2521.26
32    311    2542.64
32    311.5    2563.82
32    312    2584.81
32    312.5    2605.6
32    313    2626.19
32    313.5    2646.59
32    314    2666.78
32    314.5    2686.77
32    315    2706.55
32    315.5    2726.13
32    316    2745.5
32    316.5    2764.66
32    317    2783.61
32    317.5    2802.34
32    318    2820.87
32    318.5    2839.18
32    319    2857.27
32    319.5    2875.15
32    320    2892.8
32    320.5    2910.24
32    321    2927.46
32    321.5    2944.45
32    322    2961.22
32    322.5    2977.76
32    323    2994.07
32    323.5    3010.16
32    324    3026.02
32    324.5    3041.65
32    325    3057.04
32    325.5    3072.21
32    326    3087.14
32    326.5    3101.83
32    327    3116.29
32    327.5    3130.51
32    328    3144.49
32    328.5    3158.24
32    329    3171.74
32    329.5    3185
32    330    3198.02
32    330.5    3210.79
32    331    3223.32
32    331.5    3235.61
32    332    3247.65
32    332.5    3259.44
32    333    3270.98
32    333.5    3282.28
32    334    3293.32
32    334.5    3304.11
32    335    3314.65
32    335.5    3324.94
32    336    3334.98
32    336.5    3344.76
32    337    3354.29
32    337.5    3363.56
32    338    3372.57
32    338.5    3381.33
32    339    3389.83
32    339.5    3398.08
32    340    3406.06
32    340.5    3413.79
32    341    3421.25
32    341.5    3428.46
32    342    3435.4
32    342.5    3442.08
32    343    3448.5
32    343.5    3454.66
32    344    3460.55
32    344.5    3466.18
32    345    3471.55
32    345.5    3476.65
32    346    3481.49
32    346.5    3486.06
32    347    3490.37
32    347.5    3494.41
32    348    3498.18
32    348.5    3501.69
32    349    3504.93
32    349.5    3507.91
32    350    3510.61
32    350.5    3513.05
32    351    3515.23
32    351.5    3517.13
32    352    3518.77
32    352.5    3520.14
32    353    3521.24
32    353.5    3522.07
32    354    3522.64
32    354.5    3522.93
32    355    3522.96
32    355.5    3522.72
32    356    3522.21
32    356.5    3521.44
32    357    3520.39
32    357.5    3519.08
32    358    3517.5
32    358.5    3515.65
32    359    3513.53
32    359.5    3511.15
32    360    3508.5
32    360.5    3505.58
32    361    3502.39
32    361.5    3498.94
32    362    3495.22
32    362.5    3491.24
32    363    3486.99
32    363.5    3482.47
32    364    3477.69
32    364.5    3472.64
32    365    3467.33
32    365.5    3461.76
32    366    3455.92
32    366.5    3449.82
32    367    3443.45
32    367.5    3436.83
32    368    3429.94
32    368.5    3422.79
32    369    3415.38
32    369.5    3407.71
32    370    3399.78
32    370.5    3391.59
32    371    3383.14
32    371.5    3374.44
32    372    3365.48
32    372.5    3356.26
32    373    3346.79
32    373.5    3337.06
32    374    3327.07
32    374.5    3316.84
32    375    3306.35
32    375.5    3295.61
32    376    3284.62
32    376.5    3273.38
32    377    3261.89
32    377.5    3250.15
32    378    3238.16
32    378.5    3225.93
32    379    3213.45
32    379.5    3200.73
32    380    3187.76
32    380.5    3174.55
32    381    3161.1
32    381.5    3147.4
32    382    3133.47
32    382.5    3119.3
32    383    3104.89
32    383.5    3090.25
32    384    3075.37
32    384.5    3060.25
32    385    3044.91
32    385.5    3029.33
32    386    3013.52
32    386.5    2997.48
32    387    2981.21
32    387.5    2964.71
32    388    2947.99
32    388.5    2931.05
32    389    2913.88
32    389.5    2896.49
32    390    2878.88
32    390.5    2861.05
32    391    2843
32    391.5    2824.74
32    392    2806.26
32    392.5    2787.56
32    393    2768.66
32    393.5    2749.54
32    394    2730.22
32    394.5    2710.68
32    395    2690.94
32    395.5    2671
32    396    2650.85
32    396.5    2630.5
32    397    2609.95
32    397.5    2589.2
32    398    2568.25
32    398.5    2547.11
32    399    2525.78
32    399.5    2504.25
32    400    2482.53
32    400.5    2460.62
32    401    2438.52
32    401.5    2416.24
32    402    2393.78
32    402.5    2371.13
32    403    2348.3
32    403.5    2325.29
32    404    2302.11
32    404.5    2278.75
32    405    2255.22
32    405.5    2231.51
32    406    2207.64
32    406.5    2183.6
32    407    2159.39
32    407.5    2135.01
32    408    2110.48
32    408.5    2085.78
32    409    2060.93
32    409.5    2035.91
32    410    2010.75
32    410.5    1985.42
32    411    1959.95
32    411.5    1934.33
32    412    1908.56
32    412.5    1882.65
32    413    1856.59
32    413.5    1830.39
32    414    1804.06
32    414.5    1777.58
32    415    1750.97
32    415.5    1724.23
32    416    1697.35
32    416.5    1670.35
32    417    1643.21
32    417.5    1615.96
32    418    1588.58
32    418.5    1561.08
32    419    1533.46
32    419.5    1505.72
32    420    1477.87
32    420.5    1449.9
32    421    1421.83
32    421.5    1393.65
32    422    1365.36
32    422.5    1336.97
32    423    1308.47
32    423.5    1279.88
32    424    1251.18
32    424.5    1222.4
32    425    1193.52
32    425.5    1164.55
32    426    1135.49
32    426.5    1106.34
32    427    1077.11
32    427.5    1047.8
32    428    1018.41
32    428.5    988.937
32    429    959.392
32    429.5    929.774
32    430    900.085
32    430.5    870.328
32    431    840.504
32    431.5    810.616
32    432    780.667
32    432.5    750.658
32    433    720.592
32    433.5    690.471
32    434    660.298
32    434.5    630.074
32    435    599.802
32    435.5    569.485
32    436    539.124
32    436.5    508.722
32    437    478.282
32    437.5    447.805
32    438    417.293
32    438.5    386.751
32    439    356.178
32    439.5    325.579
32    440    294.954
32    440.5    264.308
32    441    233.641
32    441.5    202.956
32    442    172.256
32    442.5    141.543
32    443    110.819
32    443.5    80.0864
32    444    49.3478
32    444.5    18.6055
32    445    -12.1382
32    445.5    -42.881
32    446    -73.6205
32    446.5    -104.354
32    447    -135.08
32    447.5    -165.796
32    448    -196.499
32    448.5    -227.187
32    449    -257.858
32    449.5    -288.509
32    450    -319.138
32    450.5    -349.743
32    451    -380.322
32    451.5    -410.871
32    452    -441.389
32    452.5    -471.873
32    453    -502.322
32    453.5    -532.732
32    454    -563.102
32    454.5    -593.428
32    455    -623.71
32    455.5    -653.944
32    456    -684.128
32    456.5    -714.26
32    457    -744.338
32    457.5    -774.359
32    458    -804.321
32    458.5    -834.222
32    459    -864.059
32    459.5    -893.831
32    460    -923.534
32    460.5    -953.168
32    461    -982.728
32    461.5    -1012.21
32    462    -1041.62
32    462.5    -1070.95
32    463    -1100.2
32    463.5    -1129.36
32    464    -1158.44
32    464.5    -1187.43
32    465    -1216.33
32    465.5    -1245.14
32    466    -1273.85
32    466.5    -1302.46
32    467    -1330.98
32    467.5    -1359.39
32    468    -1387.7
32    468.5    -1415.91
32    469    -1444.01
32    469.5    -1471.99
32    470    -1499.87
32    470.5    -1527.63
32    471    -1555.27
32    471.5    -1582.8
32    472    -1610.21
32    472.5    -1637.49
32    473    -1664.65
32    473.5    -1691.68
32    474    -1718.58
32    474.5    -1745.35
32    475    -1771.99
32    475.5    -1798.5
32    476    -1824.86
32    476.5    -1851.09
32    477    -1877.18
32    477.5    -1903.12
32    478    -1928.92
32    478.5    -1954.58
32    479    -1980.08
32    479.5    -2005.43
32    480    -2030.63
32    480.5    -2055.68
32    481    -2080.57
32    481.5    -2105.3
32    482    -2129.87
32    482.5    -2154.27
32    483    -2178.52
32    483.5    -2202.6
32    484    -2226.51
32    484.5    -2250.25
32    485    -2273.82
32    485.5    -2297.21
32    486    -2320.43
32    486.5    -2343.48
32    487    -2366.34
32    487.5    -2389.03
32    488    -2411.53
32    488.5    -2433.85
32    489    -2455.99
32    489.5    -2477.93
32    490    -2499.69
32    490.5    -2521.26
32    491    -2542.64
32    491.5    -2563.82
32    492    -2584.81
32    492.5    -2605.6
32    493    -2626.19
32    493.5    -2646.59
32    494    -2666.78
32    494.5    -2686.76
32    495    -2706.55
32    495.5    -2726.13
32    496    -2745.5
32    496.5    -2764.66
32    497    -2783.61
32    497.5    -2802.34
32    498    -2820.87
32    498.5    -2839.18
32    499    -2857.27
32    499.5    -2875.15
32    500    -2892.8
32    500.5    -2910.24
32    501    -2927.46
32    501.5    -2944.45
32    502    -2961.22
32    502.5    -2977.76
32    503    -2994.07
32    503.5    -3010.16
32    504    -3026.02
32    504.5    -3041.65
32    505    -3057.04
32    505.5    -3072.21
32    506    -3087.14
32    506.5    -3101.83
32    507    -3116.29
32    507.5    -3130.51
32    508    -3144.49
32    508.5    -3158.24
32    509    -3171.74
32    509.5    -3185
32    510    -3198.02
32    510.5    -3210.79
32    511    -3223.32
32    511.5    -3235.61
32    512    -3247.65
32    512.5    -3259.44
32    513    -3270.98
32    513.5    -3282.28
32    514    -3293.32
32    514.5    -3304.11
32    515    -3314.65
32    515.5    -3324.94
32    516    -3334.98
32    516.5    -3344.76
32    517    -3354.29
32    517.5    -3363.56
32    518    -3372.57
32    518.5    -3381.33
32    519    -3389.83
32    519.5    -3398.08
32    520    -3406.06
32    520.5    -3413.79
32    521    -3421.25
32    521.5    -3428.46
32    522    -3435.4
32    522.5    -3442.08
32    523    -3448.5
32    523.5    -3454.66
32    524    -3460.55
32    524.5    -3466.18
32    525    -3471.55
32    525.5    -3476.65
32    526    -3481.49
32    526.5    -3486.06
32    527    -3490.37
32    527.5    -3494.41
32    528    -3498.18
32    528.5    -3501.69
32    529    -3504.93
32    529.5    -3507.91
32    530    -3510.61
32    530.5    -3513.05
32    531    -3515.23
32    531.5    -3517.13
32    532    -3518.77
32    532.5    -3520.14
32    533    -3521.24
32    533.5    -3522.07
32    534    -3522.64
32    534.5    -3522.93
32    535    -3522.96
32    535.5    -3522.72
32    536    -3522.21
32    536.5    -3521.44
32    537    -3520.39
32    537.5    -3519.08
32    538    -3517.5
32    538.5    -3515.65
32    539    -3513.53
32    539.5    -3511.15
32    540    -3508.5
32    540.5    -3505.58
32    541    -3502.39
32    541.5    -3498.94
32    542    -3495.22
32    542.5    -3491.24
32    543    -3486.99
32    543.5    -3482.47
32    544    -3477.69
32    544.5    -3472.64
32    545    -3467.33
32    545.5    -3461.76
32    546    -3455.92
32    546.5    -3449.82
32    547    -3443.45
32    547.5    -3436.83
32    548    -3429.94
32    548.5    -3422.79
32    549    -3415.38
32    549.5    -3407.71
32    550    -3399.78
32    550.5    -3391.59
32    551    -3383.14
32    551.5    -3374.44
32    552    -3365.48
32    552.5    -3356.26
32    553    -3346.79
32    553.5    -3337.06
32    554    -3327.07
32    554.5    -3316.84
32    555    -3306.35
32    555.5    -3295.61
32    556    -3284.62
32    556.5    -3273.38
32    557    -3261.89
32    557.5    -3250.15
32    558    -3238.16
32    558.5    -3225.93
32    559    -3213.45
32    559.5    -3200.73
32    560    -3187.76
32    560.5    -3174.55
32    561    -3161.1
32    561.5    -3147.4
32    562    -3133.47
32    562.5    -3119.3
32    563    -3104.89
32    563.5    -3090.25
32    564    -3075.37
32    564.5    -3060.25
32    565    -3044.91
32    565.5    -3029.33
32    566    -3013.52
32    566.5    -2997.48
32    567    -2981.21
32    567.5    -2964.71
32    568    -2947.99
32    568.5    -2931.05
32    569    -2913.88
32    569.5    -2896.49
32    570    -2878.88
32    570.5    -2861.05
32    571    -2843
32    571.5    -2824.74
32    572    -2806.26
32    572.5    -2787.57
32    573    -2768.66
32    573.5    -2749.54
32    574    -2730.22
32    574.5    -2710.68
32    575    -2690.94
32    575.5    -2671
32    576    -2650.85
32    576.5    -2630.5
32    577    -2609.95
32    577.5    -2589.2
32    578    -2568.25
32    578.5    -2547.11
32    579    -2525.78
32    579.5    -2504.25
32    580    -2482.53
32    580.5    -2460.62
32    581    -2438.52
32    581.5    -2416.24
32    582    -2393.78
32    582.5    -2371.13
32    583    -2348.3
32    583.5    -2325.29
32    584    -2302.11
32    584.5    -2278.75
32    585    -2255.22
32    585.5    -2231.51
32    586    -2207.64
32    586.5    -2183.6
32    587    -2159.39
32    587.5    -2135.01
32    588    -2110.48
32    588.5    -2085.78
32    589    -2060.93
32    589.5    -2035.91
32    590    -2010.75
32    590.5    -1985.42
32    591    -1959.95
32    591.5    -1934.33
32    592    -1908.56
32    592.5    -1882.65
32    593    -1856.59
32    593.5    -1830.39
32    594    -1804.06
32    594.5    -1777.58
32    595    -1750.97
32    595.5    -1724.23
32    596    -1697.35
32    596.5    -1670.35
32    597    -1643.21
32    597.5    -1615.96
32    598    -1588.58
32    598.5    -1561.08
32    599    -1533.46
32    599.5    -1505.72
32    600    -1477.87
32    600.5    -1449.9
32    601    -1421.83
32    601.5    -1393.65
32    602    -1365.36
32    602.5    -1336.97
32    603    -1308.47
32    603.5    -1279.88
32    604    -1251.19
32    604.5    -1222.4
32    605    -1193.52
32    605.5    -1164.55
32    606    -1135.49
32    606.5    -1106.34
32    607    -1077.11
32    607.5    -1047.8
32    608    -1018.41
32    608.5    -988.937
32    609    -959.392
32    609.5    -929.774
32    610    -900.085
32    610.5    -870.328
32    611    -840.504
32    611.5    -810.617
32    612    -780.667
32    612.5    -750.658
32    613    -720.592
32    613.5    -690.471
32    614    -660.298
32    614.5    -630.074
32    615    -599.802
32    615.5    -569.485
32    616    -539.124
32    616.5    -508.722
32    617    -478.282
32    617.5    -447.805
32    618    -417.294
32    618.5    -386.751
32    619    -356.178
32    619.5    -325.579
32    620    -294.955
32    620.5    -264.308
32    621    -233.641
32    621.5    -202.956
32    622    -172.256
32    622.5    -141.543
32    623    -110.819
32    623.5    -80.0866
32    624    -49.348
32    624.5    -18.6057
32    625    12.138
32    625.5    42.8808
32    626    73.6203
32    626.5    104.354
32    627    135.08
32    627.5    165.796
32    628    196.499
32    628.5    227.187
32    629    257.858
32    629.5    288.509
32    630    319.138
32    630.5    349.743
32    631    380.321
32    631.5    410.871
32    632    441.389
32    632.5    471.873
32    633    502.322
32    633.5    532.732
32    634    563.101
32    634.5    593.428
32    635    623.71
32    635.5    653.944
32    636    684.128
32    636.5    714.26
32    637    744.338
32    637.5    774.359
32    638    804.321
32    638.5    834.222
32    639    864.059
32    639.5    893.831
32    640    923.534
32    640.5    953.167
32    641    982.728
32    641.5    1012.21
32    642    1041.62
32    642.5    1070.95
32    643    1100.2
32    643.5    1129.36
32    644    1158.44
32    644.5    1187.43
32    645    1216.33
32    645.5    1245.14
32    646    1273.85
32    646.5    1302.46
32    647    1330.98
32    647.5    1359.39
32    648    1387.7
32    648.5    1415.91
32    649    1444.01
32    649.5    1471.99
32    650    1499.87
32    650.5    1527.63
32    651    1555.27
32    651.5    1582.8
32    652    1610.21
32    652.5    1637.49
32    653    1664.65
32    653.5    1691.68
32    654    1718.58
32    654.5    1745.35
32    655    1771.99
32    655.5    1798.5
32    656    1824.86
32    656.5    1851.09
32    657    1877.18
32    657.5    1903.12
32    658    1928.92
32    658.5    1954.58
32    659    1980.08
32    659.5    2005.43
32    660    2030.63
32    660.5    2055.68
32    661    2080.57
32    661.5    2105.3
32    662    2129.87
32    662.5    2154.27
32    663    2178.52
32    663.5    2202.6
32    664    2226.51
32    664.5    2250.25
32    665    2273.81
32    665.5    2297.21
32    666    2320.43
32    666.5    2343.48
32    667    2366.34
32    667.5    2389.03
32    668    2411.53
32    668.5    2433.85
32    669    2455.99
32    669.5    2477.93
32    670    2499.69
32    670.5    2521.26
32    671    2542.64
32    671.5    2563.82
32    672    2584.81
32    672.5    2605.6
32    673    2626.19
32    673.5    2646.59
32    674    2666.78
32    674.5    2686.76
32    675    2706.55
32    675.5    2726.13
32    676    2745.49
32    676.5    2764.66
32    677    2783.61
32    677.5    2802.34
32    678    2820.87
32    678.5    2839.18
32    679    2857.27
32    679.5    2875.15
32    680    2892.8
32    680.5    2910.24
32    681    2927.46
32    681.5    2944.45
32    682    2961.22
32    682.5    2977.76
32    683    2994.07
32    683.5    3010.16
32    684    3026.02
32    684.5    3041.65
32    685    3057.04
32    685.5    3072.21
32    686    3087.14
32    686.5    3101.83
32    687    3116.29
32    687.5    3130.51
32    688    3144.49
32    688.5    3158.24
32    689    3171.74
32    689.5    3185
32    690    3198.02
32    690.5    3210.79
32    691    3223.32
32    691.5    3235.61
32    692    3247.65
32    692.5    3259.44
32    693    3270.98
32    693.5    3282.27
32    694    3293.32
32    694.5    3304.11
32    695    3314.65
32    695.5    3324.94
32    696    3334.98
32    696.5    3344.76
32    697    3354.29
32    697.5    3363.56
32    698    3372.57
32    698.5    3381.33
32    699    3389.83
32    699.5    3398.08
32    700    3406.06
32    700.5    3413.79
32    701    3421.25
32    701.5    3428.46
32    702    3435.4
32    702.5    3442.08
32    703    3448.5
32    703.5    3454.66
32    704    3460.55
32    704.5    3466.18
32    705    3471.55
32    705.5    3476.65
32    706    3481.49
32    706.5    3486.06
32    707    3490.37
32    707.5    3494.41
32    708    3498.18
32    708.5    3501.69
32    709    3504.93
32    709.5    3507.91
32    710    3510.61
32    710.5    3513.05
32    711    3515.23
32    711.5    3517.13
32    712    3518.77
32    712.5    3520.14
32    713    3521.24
32    713.5    3522.07
32    714    3522.64
32    714.5    3522.93
32    715    3522.96
32    715.5    3522.72
32    716    3522.21
32    716.5    3521.44
32    717    3520.39
32    717.5    3519.08
32    718    3517.5
32    718.5    3515.65
32    719    3513.53
32    719.5    3511.15
32    720    3508.5
32    720.5    3505.58
32    721    3502.39
32    721.5    3498.94
32    722    3495.22
32    722.5    3491.24
32    723    3486.99
32    723.5    3482.47
32    724    3477.69
32    724.5    3472.64
32    725    3467.33
32    725.5    3461.76
32    726    3455.92
32    726.5    3449.82
32    727    3443.45
32    727.5    3436.83
32    728    3429.94
32    728.5    3422.79
32    729    3415.38
32    729.5    3407.71
32    730    3399.78
32    730.5    3391.59
32    731    3383.14
32    731.5    3374.44
32    732    3365.48
32    732.5    3356.26
32    733    3346.79
32    733.5    3337.06
32    734    3327.07
32    734.5    3316.84
32    735    3306.35
32    735.5    3295.61
32    736    3284.62
32    736.5    3273.38
32    737    3261.89
32    737.5    3250.15
32    738    3238.16
32    738.5    3225.93
32    739    3213.45
32    739.5    3200.73
32    740    3187.76
32    740.5    3174.55
32    741    3161.1
32    741.5    3147.4
32    742    3133.47
32    742.5    3119.3
32    743    3104.89
32    743.5    3090.25
32    744    3075.37
32    744.5    3060.25
32    745    3044.91
32    745.5    3029.33
32    746    3013.52
32    746.5    2997.48
32    747    2981.21
32    747.5    2964.71
32    748    2947.99
32    748.5    2931.05
32    749    2913.88
32    749.5    2896.49
32    750    2878.88
32    750.5    2861.05
32    751    2843
32    751.5    2824.74
32    752    2806.26
32    752.5    2787.57
32    753    2768.66
32    753.5    2749.54
32    754    2730.22
32    754.5    2710.68
32    755    2690.94
32    755.5    2671
32    756    2650.85
32    756.5    2630.5
32    757    2609.95
32    757.5    2589.2
32    758    2568.25
32    758.5    2547.11
32    759    2525.78
32    759.5    2504.25
32    760    2482.53
32    760.5    2460.62
32    761    2438.52
32    761.5    2416.24
32    762    2393.78
32    762.5    2371.13
32    763    2348.3
32    763.5    2325.29
32    764    2302.11
32    764.5    2278.75
32    765    2255.22
32    765.5    2231.51
32    766    2207.64
32    766.5    2183.6
32    767    2159.39
32    767.5    2135.01
32    768    2110.48
32    768.5    2085.78
32    769    2060.93
32    769.5    2035.91
32    770    2010.75
32    770.5    1985.42
32    771    1959.95
32    771.5    1934.33
32    772    1908.56
32    772.5    1882.65
32    773    1856.59
32    773.5    1830.39
32    774    1804.06
32    774.5    1777.58
32    775    1750.97
32    775.5    1724.23
32    776    1697.35
32    776.5    1670.35
32    777    1643.21
32    777.5    1615.96
32    778    1588.58
32    778.5    1561.08
32    779    1533.46
32    779.5    1505.72
32    780    1477.87
32    780.5    1449.9
32    781    1421.83
32    781.5    1393.65
32    782    1365.36
32    782.5    1336.97
32    783    1308.47
32    783.5    1279.88
32    784    1251.19
32    784.5    1222.4
32    785    1193.52
32    785.5    1164.55
32    786    1135.49
32    786.5    1106.34
32    787    1077.11
32    787.5    1047.8
32    788    1018.41
32    788.5    988.937
32    789    959.392
32    789.5    929.774
32    790    900.086
32    790.5    870.328
32    791    840.505
32    791.5    810.617
32    792    780.667
32    792.5    750.659
32    793    720.593
32    793.5    690.472
32    794    660.298
32    794.5    630.074
32    795    599.803
32    795.5    569.485
32    796    539.124
32    796.5    508.723
32    797    478.282
32    797.5    447.805
32    798    417.294
32    798.5    386.751
32    799    356.179
32    799.5    325.579
32    800    294.955
32    800.5    264.308
32    801    233.641
32    801.5    202.957
32    802    172.256
32    802.5    141.543
32    803    110.819
32    803.5    80.0868
32    804    49.3482
32    804.5    18.6059
32    805    -12.1378
32    805.5    -42.8806
32    806    -73.6201
32    806.5    -104.354
32    807    -135.08
32    807.5    -165.796
32    808    -196.499
32    808.5    -227.187
32    809    -257.858
32    809.5    -288.509
32    810    -319.138
32    810.5    -349.743
32    811    -380.321
32    811.5    -410.87
32    812    -441.388
32    812.5    -471.873
32    813    -502.321
32    813.5    -532.732
32    814    -563.101
32    814.5    -593.428
32    815    -623.709
32    815.5    -653.944
32    816    -684.128
32    816.5    -714.26
32    817    -744.338
32    817.5    -774.359
32    818    -804.321
32    818.5    -834.222
32    819    -864.059
32    819.5    -893.831
32    820    -923.534
32    820.5    -953.167
32    821    -982.728
32    821.5    -1012.21
32    822    -1041.62
32    822.5    -1070.95
32    823    -1100.2
32    823.5    -1129.36
32    824    -1158.44
32    824.5    -1187.43
32    825    -1216.33
32    825.5    -1245.14
32    826    -1273.85
32    826.5    -1302.46
32    827    -1330.98
32    827.5    -1359.39
32    828    -1387.7
32    828.5    -1415.91
32    829    -1444.01
32    829.5    -1471.99
32    830    -1499.87
32    830.5    -1527.63
32    831    -1555.27
32    831.5    -1582.8
32    832    -1610.21
32    832.5    -1637.49
32    833    -1664.65
32    833.5    -1691.68
32    834    -1718.58
32    834.5    -1745.35
32    835    -1771.99
32    835.5    -1798.5
32    836    -1824.86
32    836.5    -1851.09
32    837    -1877.18
32    837.5    -1903.12
32    838    -1928.92
32    838.5    -1954.57
32    839    -1980.08
32    839.5    -2005.43
32    840    -2030.63
32    840.5    -2055.68
32    841    -2080.57
32    841.5    -2105.3
32    842    -2129.87
32    842.5    -2154.27
32    843    -2178.52
32    843.5    -2202.59
32    844    -2226.51
32    844.5    -2250.25
32    845    -2273.81
32    845.5    -2297.21
32    846    -2320.43
32    846.5    -2343.48
32    847    -2366.34
32    847.5    -2389.03
32    848    -2411.53
32    848.5    -2433.85
32    849    -2455.99
32    849.5    -2477.93
32    850    -2499.69
32    850.5    -2521.26
32    851    -2542.64
32    851.5    -2563.82
32    852    -2584.81
32    852.5    -2605.6
32    853    -2626.19
32    853.5    -2646.59
32    854    -2666.78
32    854.5    -2686.76
32    855    -2706.55
32    855.5    -2726.13
32    856    -2745.49
32    856.5    -2764.66
32    857    -2783.61
32    857.5    -2802.34
32    858    -2820.87
32    858.5    -2839.18
32    859    -2857.27
32    859.5    -2875.15
32    860    -2892.8
32    860.5    -2910.24
32    861    -2927.46
32    861.5    -2944.45
32    862    -2961.22
32    862.5    -2977.76
32    863    -2994.07
32    863.5    -3010.16
32    864    -3026.02
32    864.5    -3041.65
32    865    -3057.04
32    865.5    -3072.21
32    866    -3087.14
32    866.5    -3101.83
32    867    -3116.29
32    867.5    -3130.51
32    868    -3144.49
32    868.5    -3158.24
32    869    -3171.74
32    869.5    -3185
32    870    -3198.02
32    870.5    -3210.79
32    871    -3223.32
32    871.5    -3235.61
32    872    -3247.65
32    872.5    -3259.44
32    873    -3270.98
32    873.5    -3282.27
32    874    -3293.32
32    874.5    -3304.11
32    875    -3314.65
32    875.5    -3324.94
32    876    -3334.98
32    876.5    -3344.76
32    877    -3354.29
32    877.5    -3363.56
32    878    -3372.57
32    878.5    -3381.33
32    879    -3389.83
32    879.5    -3398.08
32    880    -3406.06
32    880.5    -3413.79
32    881    -3421.25
32    881.5    -3428.46
32    882    -3435.4
32    882.5    -3442.08
32    883    -3448.5
32    883.5    -3454.66
32    884    -3460.55
32    884.5    -3466.18
32    885    -3471.55
32    885.5    -3476.65
32    886    -3481.49
32    886.5    -3486.06
32    887    -3490.37
32    887.5    -3494.41
32    888    -3498.18
32    888.5    -3501.69
32    889    -3504.93
32    889.5    -3507.91
32    890    -3510.61
32    890.5    -3513.05
32    891    -3515.23
32    891.5    -3517.13
32    892    -3518.77
32    892.5    -3520.14
32    893    -3521.24
32    893.5    -3522.07
32    894    -3522.64
32    894.5    -3522.93
32    895    -3522.96
32    895.5    -3522.72
32    896    -3522.21
32    896.5    -3521.44
32    897    -3520.39
32    897.5    -3519.08
32    898    -3517.5
32    898.5    -3515.65
32    899    -3513.53
32    899.5    -3511.15
32    900    -3508.5
32    900.5    -3505.58
32    901    -3502.39
32    901.5    -3498.94
32    902    -3495.22
32    902.5    -3491.24
32    903    -3486.99
32    903.5    -3482.47
32    904    -3477.69
32    904.5    -3472.64
32    905    -3467.33
32    905.5    -3461.76
32    906    -3455.92
32    906.5    -3449.82
32    907    -3443.45
32    907.5    -3436.83
32    908    -3429.94
32    908.5    -3422.79
32    909    -3415.38
32    909.5    -3407.71
32    910    -3399.78
32    910.5    -3391.59
32    911    -3383.14
32    911.5    -3374.44
32    912    -3365.48
32    912.5    -3356.26
32    913    -3346.79
32    913.5    -3337.06
32    914    -3327.08
32    914.5    -3316.84
32    915    -3306.35
32    915.5    -3295.61
32    916    -3284.62
32    916.5    -3273.38
32    917    -3261.89
32    917.5    -3250.15
32    918    -3238.16
32    918.5    -3225.93
32    919    -3213.45
32    919.5    -3200.73
32    920    -3187.76
32    920.5    -3174.55
32    921    -3161.1
32    921.5    -3147.4
32    922    -3133.47
32    922.5    -3119.3
32    923    -3104.89
32    923.5    -3090.25
32    924    -3075.37
32    924.5    -3060.25
32    925    -3044.91
32    925.5    -3029.33
32    926    -3013.52
32    926.5    -2997.48
32    927    -2981.21
32    927.5    -2964.72
32    928    -2947.99
32    928.5    -2931.05
32    929    -2913.88
32    929.5    -2896.49
32    930    -2878.88
32    930.5    -2861.05
32    931    -2843
32    931.5    -2824.74
32    932    -2806.26
32    932.5    -2787.57
32    933    -2768.66
32    933.5    -2749.54
32    934    -2730.22
32    934.5    -2710.68
32    935    -2690.94
32    935.5    -2671
32    936    -2650.85
32    936.5    -2630.5
32    937    -2609.95
32    937.5    -2589.2
32    938    -2568.25
32    938.5    -2547.11
32    939    -2525.78
32    939.5    -2504.25
32    940    -2482.53
32    940.5    -2460.62
32    941    -2438.52
32    941.5    -2416.24
32    942    -2393.78
32    942.5    -2371.13
32    943    -2348.3
32    943.5    -2325.3
32    944    -2302.11
32    944.5    -2278.75
32    945    -2255.22
32    945.5    -2231.51
32    946    -2207.64
32    946.5    -2183.6
32    947    -2159.39
32    947.5    -2135.01
32    948    -2110.48
32    948.5    -2085.78
32    949    -2060.93
32    949.5    -2035.91
32    950    -2010.75
32    950.5    -1985.43
32    951    -1959.95
32    951.5    -1934.33
32    952    -1908.56
32    952.5    -1882.65
32    953    -1856.59
32    953.5    -1830.39
32    954    -1804.06
32    954.5    -1777.58
32    955    -1750.97
32    955.5    -1724.23
32    956    -1697.35
32    956.5    -1670.35
32    957    -1643.21
32    957.5    -1615.96
32    958    -1588.58
32    958.5    -1561.08
32    959    -1533.46
32    959.5    -1505.72
32    960    -1477.87
32    960.5    -1449.9
32    961    -1421.83
32    961.5    -1393.65
32    962    -1365.36
32    962.5    -1336.97
32    963    -1308.47
32    963.5    -1279.88
32    964    -1251.19
32    964.5    -1222.4
32    965    -1193.52
32    965.5    -1164.55
32    966    -1135.49
32    966.5    -1106.34
32    967    -1077.11
32    967.5    -1047.8
32    968    -1018.41
32    968.5    -988.938
32    969    -959.393
32    969.5    -929.775
32    970    -900.086
32    970.5    -870.328
32    971    -840.505
32    971.5    -810.617
32    972    -780.668
32    972.5    -750.659
32    973    -720.593
32    973.5    -690.472
32    974    -660.298
32    974.5    -630.075
32    975    -599.803
32    975.5    -569.485
32    976    -539.125
32    976.5    -508.723
32    977    -478.282
32    977.5    -447.805
32    978    -417.294
32    978.5    -386.751
32    979    -356.179
32    979.5    -325.579
32    980    -294.955
32    980.5    -264.308
32    981    -233.641
32    981.5    -202.957
32    982    -172.257
32    982.5    -141.543
32    983    -110.819
32    983.5    -80.0869
32    984    -49.3484
32    984.5    -18.6061
32    985    12.1376
32    985.5    42.8804
32    986    73.62
32    986.5    104.354
32    987    135.08
32    987.5    165.796
32    988    196.499
32    988.5    227.187
32    989    257.858
32    989.5    288.509
32    990    319.138
32    990.5    349.743
32    991    380.321
32    991.5    410.87
32    992    441.388
32    992.5    471.873
32    993    502.321
32    993.5    532.731
32    994    563.101
32    994.5    593.428
32    995    623.709
32    995.5    653.943
32    996    684.128
32    996.5    714.26
32    997    744.338
32    997.5    774.359
32    998    804.321
32    998.5    834.222
32    999    864.059
32    999.5    893.83
32    1000    923.534
32    1000.5    953.167
32    1001    982.728
32    1001.5    1012.21
32    1002    1041.62
32    1002.5    1070.95
32    1003    1100.2
32    1003.5    1129.36
32    1004    1158.44
32    1004.5    1187.43
32    1005    1216.33
32    1005.5    1245.14
32    1006    1273.85
32    1006.5    1302.46
32    1007    1330.98
32    1007.5    1359.39
32    1008    1387.7
32    1008.5    1415.91
32    1009    1444.01
32    1009.5    1471.99
32    1010    1499.87
32    1010.5    1527.63
32    1011    1555.27
32    1011.5    1582.8
32    1012    1610.21
32    1012.5    1637.49
32    1013    1664.65
32    1013.5    1691.68
32    1014    1718.58
32    1014.5    1745.35
32    1015    1771.99
32    1015.5    1798.5
32    1016    1824.86
32    1016.5    1851.09
32    1017    1877.18
32    1017.5    1903.12
32    1018    1928.92
32    1018.5    1954.57
32    1019    1980.08
32    1019.5    2005.43
32    1020    2030.63
32    1020.5    2055.68
32    1021    2080.57
32    1021.5    2105.3
32    1022    2129.87
32    1022.5    2154.27
32    1023    2178.52
32    1023.5    2202.59
32    1024    2226.5
32    1024.5    2250.25
32    1025    2273.81
32    1025.5    2297.21
32    1026    2320.43
32    1026.5    2343.48
32    1027    2366.34
32    1027.5    2389.03
32    1028    2411.53
32    1028.5    2433.85
32    1029    2455.99
32    1029.5    2477.93
32    1030    2499.69
32    1030.5    2521.26
32    1031    2542.64
32    1031.5    2563.82
32    1032    2584.81
32    1032.5    2605.6
32    1033    2626.19
32    1033.5    2646.59
32    1034    2666.78
32    1034.5    2686.76
32    1035    2706.55
32    1035.5    2726.13
32    1036    2745.49
32    1036.5    2764.66
32    1037    2783.61
32    1037.5    2802.34
32    1038    2820.87
32    1038.5    2839.18
32    1039    2857.27
32    1039.5    2875.15
32    1040    2892.8
32    1040.5    2910.24
32    1041    2927.46
32    1041.5    2944.45
32    1042    2961.22
32    1042.5    2977.76
32    1043    2994.07
32    1043.5    3010.16
32    1044    3026.02
32    1044.5    3041.65
32    1045    3057.04
32    1045.5    3072.21
32    1046    3087.14
32    1046.5    3101.83
32    1047    3116.29
32    1047.5    3130.51
32    1048    3144.49
32    1048.5    3158.24
32    1049    3171.74
32    1049.5    3185
32    1050    3198.02
32    1050.5    3210.79
32    1051    3223.32
32    1051.5    3235.61
32    1052    3247.65
32    1052.5    3259.44
32    1053    3270.98
32    1053.5    3282.27
32    1054    3293.32
32    1054.5    3304.11
32    1055    3314.65
32    1055.5    3324.94
32    1056    3334.98
32    1056.5    3344.76
32    1057    3354.29
32    1057.5    3363.56
32    1058    3372.57
32    1058.5    3381.33
32    1059    3389.83
32    1059.5    3398.08
32    1060    3406.06
32    1060.5    3413.79
32    1061    3421.25
32    1061.5    3428.46
32    1062    3435.4
32    1062.5    3442.08
32    1063    3448.5
32    1063.5    3454.66
32    1064    3460.55
32    1064.5    3466.18
32    1065    3471.55
32    1065.5    3476.65
32    1066    3481.49
32    1066.5    3486.06
32    1067    3490.37
32    1067.5    3494.41
32    1068    3498.18
32    1068.5    3501.69
32    1069    3504.93
32    1069.5    3507.91
32    1070    3510.61
32    1070.5    3513.05
32    1071    3515.23
32    1071.5    3517.13
32    1072    3518.77
32    1072.5    3520.14
32    1073    3521.24
32    1073.5    3522.07
32    1074    3522.64
32    1074.5    3522.93
32    1075    3522.96
32    1075.5    3522.72
32    1076    3522.21
32    1076.5    3521.44
32    1077    3520.39
32    1077.5    3519.08
32    1078    3517.5
32    1078.5    3515.65
32    1079    3513.53
32    1079.5    3511.15
32    1080    3508.5
32    1080.5    3505.58
32    1081    3502.39
32    1081.5    3498.94
32    1082    3495.22
32    1082.5    3491.24
32    1083    3486.99
32    1083.5    3482.47
32    1084    3477.69
32    1084.5    3472.64
32    1085    3467.33
32    1085.5    3461.76
32    1086    3455.92
32    1086.5    3449.82
32    1087    3443.45
32    1087.5    3436.83
32    1088    3429.94
32    1088.5    3422.79
32    1089    3415.38
32    1089.5    3407.71
32    1090    3399.78
32    1090.5    3391.59
32    1091    3383.14
32    1091.5    3374.44
32    1092    3365.48
32    1092.5    3356.26
32    1093    3346.79
32    1093.5    3337.06
32    1094    3327.08
32    1094.5    3316.84
32    1095    3306.35
32    1095.5    3295.61
32    1096    3284.62
32    1096.5    3273.38
32    1097    3261.89
32    1097.5    3250.15
32    1098    3238.16
32    1098.5    3225.93
32    1099    3213.45
32    1099.5    3200.73
32    1100    3187.76
32    1100.5    3174.55
32    1101    3161.1
32    1101.5    3147.4
32    1102    3133.47
32    1102.5    3119.3
32    1103    3104.89
32    1103.5    3090.25
32    1104    3075.37
32    1104.5    3060.25
32    1105    3044.91
32    1105.5    3029.33
32    1106    3013.52
32    1106.5    2997.48
32    1107    2981.21
32    1107.5    2964.72
32    1108    2947.99
32    1108.5    2931.05
32    1109    2913.88
32    1109.5    2896.49
32    1110    2878.88
32    1110.5    2861.05
32    1111    2843
32    1111.5    2824.74
32    1112    2806.26
32    1112.5    2787.57
32    1113    2768.66
32    1113.5    2749.54
32    1114    2730.22
32    1114.5    2710.68
32    1115    2690.94
32    1115.5    2671
32    1116    2650.85
32    1116.5    2630.5
32    1117    2609.95
32    1117.5    2589.2
32    1118    2568.25
32    1118.5    2547.11
32    1119    2525.78
32    1119.5    2504.25
32    1120    2482.53
32    1120.5    2460.62
32    1121    2438.52
32    1121.5    2416.24
32    1122    2393.78
32    1122.5    2371.13
32    1123    2348.3
32    1123.5    2325.3
32    1124    2302.11
32    1124.5    2278.75
32    1125    2255.22
32    1125.5    2231.51
32    1126    2207.64
32    1126.5    2183.6
32    1127    2159.39
32    1127.5    2135.01
32    1128    2110.48
32    1128.5    2085.78
32    1129    2060.93
32    1129.5    2035.91
32    1130    2010.75
32    1130.5    1985.43
32    1131    1959.95
32    1131.5    1934.33
32    1132    1908.56
32    1132.5    1882.65
32    1133    1856.59
32    1133.5    1830.39
32    1134    1804.06
32    1134.5    1777.58
32    1135    1750.97
32    1135.5    1724.23
32    1136    1697.35
32    1136.5    1670.35
32    1137    1643.21
32    1137.5    1615.96
32    1138    1588.58
32    1138.5    1561.08
32    1139    1533.46
32    1139.5    1505.72
32    1140    1477.87
32    1140.5    1449.9
32    1141    1421.83
32    1141.5    1393.65
32    1142    1365.36
32    1142.5    1336.97
32    1143    1308.47
32    1143.5    1279.88
32    1144    1251.19
32    1144.5    1222.4
32    1145    1193.52
32    1145.5    1164.55
32    1146    1135.49
32    1146.5    1106.34
32    1147    1077.11
32    1147.5    1047.8
32    1148    1018.41
32    1148.5    988.938
32    1149    959.393
32    1149.5    929.775
32    1150    900.086
32    1150.5    870.329
32    1151    840.505
32    1151.5    810.617
32    1152    780.668
32    1152.5    750.659
32    1153    720.593
32    1153.5    690.472
32    1154    660.299
32    1154.5    630.075
32    1155    599.803
32    1155.5    569.486
32    1156    539.125
32    1156.5    508.723
32    1157    478.282
32    1157.5    447.805
32    1158    417.294
32    1158.5    386.751
32    1159    356.179
32    1159.5    325.579
32    1160    294.955
32    1160.5    264.308
32    1161    233.642
32    1161.5    202.957
32    1162    172.257
32    1162.5    141.544
32    1163    110.82
32    1163.5    80.0871
32    1164    49.3486
32    1164.5    18.6063
32    1165    -12.1374
32    1165.5    -42.8802
32    1166    -73.6198
32    1166.5    -104.354
32    1167    -135.08
32    1167.5    -165.795
32    1168    -196.498
32    1168.5    -227.187
32    1169    -257.857
32    1169.5    -288.508
32    1170    -319.138
32    1170.5    -349.743
32    1171    -380.321
32    1171.5    -410.87
32    1172    -441.388
32    1172.5    -471.873
32    1173    -502.321
32    1173.5    -532.731
32    1174    -563.101
32    1174.5    -593.428
32    1175    -623.709
32    1175.5    -653.943
32    1176    -684.127
32    1176.5    -714.26
32    1177    -744.337
32    1177.5    -774.358
32    1178    -804.321
32    1178.5    -834.221
32    1179    -864.059
32    1179.5    -893.83
32    1180    -923.534
32    1180.5    -953.167
32    1181    -982.727
32    1181.5    -1012.21
32    1182    -1041.62
32    1182.5    -1070.95
32    1183    -1100.2
32    1183.5    -1129.36
32    1184    -1158.44
32    1184.5    -1187.43
32    1185    -1216.33
32    1185.5    -1245.14
32    1186    -1273.85
32    1186.5    -1302.46
32    1187    -1330.98
32    1187.5    -1359.39
32    1188    -1387.7
32    1188.5    -1415.91
32    1189    -1444.01
32    1189.5    -1471.99
32    1190    -1499.87
32    1190.5    -1527.63
32    1191    -1555.27
32    1191.5    -1582.8
32    1192    -1610.21
32    1192.5    -1637.49
32    1193    -1664.65
32    1193.5    -1691.68
32    1194    -1718.58
32    1194.5    -1745.35
32    1195    -1771.99
32    1195.5    -1798.5
32    1196    -1824.86
32    1196.5    -1851.09
32    1197    -1877.18
32    1197.5    -1903.12
32    1198    -1928.92
32    1198.5    -1954.57
32    1199    -1980.08
32    1199.5    -2005.43
32    1200    -2030.63
32    1200.5    -2055.68
32    1201    -2080.56
32    1201.5    -2105.3
32    1202    -2129.87
32    1202.5    -2154.27
32    1203    -2178.52
32    1203.5    -2202.59
32    1204    -2226.5
32    1204.5    -2250.25
32    1205    -2273.81
32    1205.5    -2297.21
32    1206    -2320.43
32    1206.5    -2343.48
32    1207    -2366.34
32    1207.5    -2389.03
32    1208    -2411.53
32    1208.5    -2433.85
32    1209    -2455.99
32    1209.5    -2477.93
32    1210    -2499.69
32    1210.5    -2521.26
32    1211    -2542.64
32    1211.5    -2563.82
32    1212    -2584.81
32    1212.5    -2605.6
32    1213    -2626.19
32    1213.5    -2646.59
32    1214    -2666.78
32    1214.5    -2686.76
32    1215    -2706.55
32    1215.5    -2726.12
32    1216    -2745.49
32    1216.5    -2764.66
32    1217    -2783.61
32    1217.5    -2802.34
32    1218    -2820.87
32    1218.5    -2839.18
32    1219    -2857.27
32    1219.5    -2875.15
32    1220    -2892.8
32    1220.5    -2910.24
32    1221    -2927.46
32    1221.5    -2944.45
32    1222    -2961.22
32    1222.5    -2977.76
32    1223    -2994.07
32    1223.5    -3010.16
32    1224    -3026.02
32    1224.5    -3041.65
32    1225    -3057.04
32    1225.5    -3072.21
32    1226    -3087.14
32    1226.5    -3101.83
32    1227    -3116.29
32    1227.5    -3130.51
32    1228    -3144.49
32    1228.5    -3158.24
32    1229    -3171.74
32    1229.5    -3185
32    1230    -3198.02
32    1230.5    -3210.79
32    1231    -3223.32
32    1231.5    -3235.61
32    1232    -3247.65
32    1232.5    -3259.44
32    1233    -3270.98
32    1233.5    -3282.27
32    1234    -3293.32
32    1234.5    -3304.11
32    1235    -3314.65
32    1235.5    -3324.94
32    1236    -3334.98
32    1236.5    -3344.76
32    1237    -3354.29
32    1237.5    -3363.56
32    1238    -3372.57
32    1238.5    -3381.33
32    1239    -3389.83
32    1239.5    -3398.08
32    1240    -3406.06
32    1240.5    -3413.79
32    1241    -3421.25
32    1241.5    -3428.46
32    1242    -3435.4
32    1242.5    -3442.08
32    1243    -3448.5
32    1243.5    -3454.66
32    1244    -3460.55
32    1244.5    -3466.18
32    1245    -3471.55
32    1245.5    -3476.65
32    1246    -3481.49
32    1246.5    -3486.06
32    1247    -3490.37
32    1247.5    -3494.41
32    1248    -3498.18
32    1248.5    -3501.69
32    1249    -3504.93
32    1249.5    -3507.91
32    1250    -3510.61
32    1250.5    -3513.05
32    1251    -3515.23
32    1251.5    -3517.13
32    1252    -3518.77
32    1252.5    -3520.14
32    1253    -3521.24
32    1253.5    -3522.07
32    1254    -3522.64
32    1254.5    -3522.93
32    1255    -3522.96
32    1255.5    -3522.72
32    1256    -3522.21
32    1256.5    -3521.44
32    1257    -3520.39
32    1257.5    -3519.08
32    1258    -3517.5
32    1258.5    -3515.65
32    1259    -3513.53
32    1259.5    -3511.15
32    1260    -3508.5
32    1260.5    -3505.58
32    1261    -3502.39
32    1261.5    -3498.94
32    1262    -3495.22
32    1262.5    -3491.24
32    1263    -3486.99
32    1263.5    -3482.47
32    1264    -3477.69
32    1264.5    -3472.64
32    1265    -3467.33
32    1265.5    -3461.76
32    1266    -3455.92
32    1266.5    -3449.82
32    1267    -3443.45
32    1267.5    -3436.83
32    1268    -3429.94
32    1268.5    -3422.79
32    1269    -3415.38
32    1269.5    -3407.71
32    1270    -3399.78
32    1270.5    -3391.59
32    1271    -3383.14
32    1271.5    -3374.44
32    1272    -3365.48
32    1272.5    -3356.26
32    1273    -3346.79
32    1273.5    -3337.06
32    1274    -3327.08
32    1274.5    -3316.84
32    1275    -3306.35
32    1275.5    -3295.61
32    1276    -3284.62
32    1276.5    -3273.38
32    1277    -3261.89
32    1277.5    -3250.15
32    1278    -3238.16
32    1278.5    -3225.93
32    1279    -3213.45
32    1279.5    -3200.73
32    1280    -3187.76
32    1280.5    -3174.55
32    1281    -3161.1
32    1281.5    -3147.4
32    1282    -3133.47
32    1282.5    -3119.3
32    1283    -3104.89
32    1283.5    -3090.25
32    1284    -3075.37
32    1284.5    -3060.25
32    1285    -3044.91
32    1285.5    -3029.33
32    1286    -3013.52
32    1286.5    -2997.48
32    1287    -2981.21
32    1287.5    -2964.72
32    1288    -2947.99
32    1288.5    -2931.05
32    1289    -2913.88
32    1289.5    -2896.49
32    1290    -2878.88
32    1290.5    -2861.05
32    1291    -2843
32    1291.5    -2824.74
32    1292    -2806.26
32    1292.5    -2787.57
32    1293    -2768.66
32    1293.5    -2749.54
32    1294    -2730.22
32    1294.5    -2710.68
32    1295    -2690.94
32    1295.5    -2671
32    1296    -2650.85
32    1296.5    -2630.5
32    1297    -2609.95
32    1297.5    -2589.2
32    1298    -2568.25
32    1298.5    -2547.11
32    1299    -2525.78
32    1299.5    -2504.25
32    1300    -2482.53
32    1300.5    -2460.62
32    1301    -2438.52
32    1301.5    -2416.24
32    1302    -2393.78
32    1302.5    -2371.13
32    1303    -2348.3
32    1303.5    -2325.3
32    1304    -2302.11
32    1304.5    -2278.75
32    1305    -2255.22
32    1305.5    -2231.51
32    1306    -2207.64
32    1306.5    -2183.6
32    1307    -2159.39
32    1307.5    -2135.01
32    1308    -2110.48
32    1308.5    -2085.78
32    1309    -2060.93
32    1309.5    -2035.91
32    1310    -2010.75
32    1310.5    -1985.43
32    1311    -1959.95
32    1311.5    -1934.33
32    1312    -1908.56
32    1312.5    -1882.65
32    1313    -1856.59
32    1313.5    -1830.39
32    1314    -1804.06
32    1314.5    -1777.58
32    1315    -1750.97
32    1315.5    -1724.23
32    1316    -1697.35
32    1316.5    -1670.35
32    1317    -1643.21
32    1317.5    -1615.96
32    1318    -1588.58
32    1318.5    -1561.08
32    1319    -1533.46
32    1319.5    -1505.72
32    1320    -1477.87
32    1320.5    -1449.9
32    1321    -1421.83
32    1321.5    -1393.65
32    1322    -1365.36
32    1322.5    -1336.97
32    1323    -1308.47
32    1323.5    -1279.88
32    1324    -1251.19
32    1324.5    -1222.4
32    1325    -1193.52
32    1325.5    -1164.55
32    1326    -1135.49
32    1326.5    -1106.34
32    1327    -1077.11
32    1327.5    -1047.8
32    1328    -1018.41
32    1328.5    -988.938
32    1329    -959.393
32    1329.5    -929.775
32    1330    -900.086
32    1330.5    -870.329
32    1331    -840.505
32    1331.5    -810.617
32    1332    -780.668
32    1332.5    -750.659
32    1333    -720.593
32    1333.5    -690.472
32    1334    -660.299
32    1334.5    -630.075
32    1335    -599.803
32    1335.5    -569.486
32    1336    -539.125
32    1336.5    -508.723
32    1337    -478.283
32    1337.5    -447.805
32    1338    -417.294
32    1338.5    -386.751
32    1339    -356.179
32    1339.5    -325.58
32    1340    -294.955
32    1340.5    -264.309
32    1341    -233.642
32    1341.5    -202.957
32    1342    -172.257
32    1342.5    -141.544
32    1343    -110.82
32    1343.5    -80.0873
32    1344    -49.3488
32    1344.5    -18.6065
32    1345    12.1373
32    1345.5    42.88
32    1346    73.6196
32    1346.5    104.354
32    1347    135.079
32    1347.5    165.795
32    1348    196.498
32    1348.5    227.186
32    1349    257.857
32    1349.5    288.508
32    1350    319.137
32    1350.5    349.742
32    1351    380.321
32    1351.5    410.87
32    1352    441.388
32    1352.5    471.872
32    1353    502.321
32    1353.5    532.731
32    1354    563.101
32    1354.5    593.427
32    1355    623.709
32    1355.5    653.943
32    1356    684.127
32    1356.5    714.259
32    1357    744.337
32    1357.5    774.358
32    1358    804.32
32    1358.5    834.221
32    1359    864.059
32    1359.5    893.83
32    1360    923.534
32    1360.5    953.167
32    1361    982.727
32    1361.5    1012.21
32    1362    1041.62
32    1362.5    1070.95
32    1363    1100.2
32    1363.5    1129.36
32    1364    1158.44
32    1364.5    1187.43
32    1365    1216.33
32    1365.5    1245.14
32    1366    1273.85
32    1366.5    1302.46
32    1367    1330.98
32    1367.5    1359.39
32    1368    1387.7
32    1368.5    1415.91
32    1369    1444.01
32    1369.5    1471.99
32    1370    1499.87
32    1370.5    1527.63
32    1371    1555.27
32    1371.5    1582.8
32    1372    1610.21
32    1372.5    1637.49
32    1373    1664.65
32    1373.5    1691.68
32    1374    1718.58
32    1374.5    1745.35
32    1375    1771.99
32    1375.5    1798.5
32    1376    1824.86
32    1376.5    1851.09
32    1377    1877.18
32    1377.5    1903.12
32    1378    1928.92
32    1378.5    1954.57
32    1379    1980.08
32    1379.5    2005.43
32    1380    2030.63
32    1380.5    2055.68
32    1381    2080.56
32    1381.5    2105.3
32    1382    2129.87
32    1382.5    2154.27
32    1383    2178.52
32    1383.5    2202.59
32    1384    2226.5
32    1384.5    2250.25
32    1385    2273.81
32    1385.5    2297.21
32    1386    2320.43
32    1386.5    2343.48
32    1387    2366.34
32    1387.5    2389.03
32    1388    2411.53
32    1388.5    2433.85
32    1389    2455.99
32    1389.5    2477.93
32    1390    2499.69
32    1390.5    2521.26
32    1391    2542.64
32    1391.5    2563.82
32    1392    2584.81
32    1392.5    2605.6
32    1393    2626.19
32    1393.5    2646.59
32    1394    2666.78
32    1394.5    2686.76
32    1395    2706.55
32    1395.5    2726.12
32    1396    2745.49
32    1396.5    2764.65
32    1397    2783.6
32    1397.5    2802.34
32    1398    2820.87
32    1398.5    2839.18
32    1399    2857.27
32    1399.5    2875.15
32    1400    2892.8
32    1400.5    2910.24
32    1401    2927.46
32    1401.5    2944.45
32    1402    2961.22
32    1402.5    2977.76
32    1403    2994.07
32    1403.5    3010.16
32    1404    3026.02
32    1404.5    3041.65
32    1405    3057.04
32    1405.5    3072.21
32    1406    3087.14
32    1406.5    3101.83
32    1407    3116.29
32    1407.5    3130.51
32    1408    3144.49
32    1408.5    3158.24
32    1409    3171.74
32    1409.5    3185
32    1410    3198.02
32    1410.5    3210.79
32    1411    3223.32
32    1411.5    3235.61
32    1412    3247.65
32    1412.5    3259.44
32    1413    3270.98
32    1413.5    3282.27
32    1414    3293.32
32    1414.5    3304.11
32    1415    3314.65
32    1415.5    3324.94
32    1416    3334.98
32    1416.5    3344.76
32    1417    3354.29
32    1417.5    3363.56
32    1418    3372.57
32    1418.5    3381.33
32    1419    3389.83
32    1419.5    3398.08
32    1420    3406.06
32    1420.5    3413.79
32    1421    3421.25
32    1421.5    3428.46
32    1422    3435.4
32    1422.5    3442.08
32    1423    3448.5
32    1423.5    3454.66
32    1424    3460.55
32    1424.5    3466.18
32    1425    3471.55
32    1425.5    3476.65
32    1426    3481.49
32    1426.5    3486.06
32    1427    3490.37
32    1427.5    3494.41
32    1428    3498.18
32    1428.5    3501.69
32    1429    3504.93
32    1429.5    3507.91
32    1430    3510.61
32    1430.5    3513.05
32    1431    3515.23
32    1431.5    3517.13
32    1432    3518.77
32    1432.5    3520.14
32    1433    3521.24
32    1433.5    3522.07
32    1434    3522.64
32    1434.5    3522.93
32    1435    3522.96
32    1435.5    3522.72
32    1436    3522.21
32    1436.5    3521.44
32    1437    3520.39
32    1437.5    3519.08
32    1438    3517.5
32    1438.5    3515.65
32    1439    3513.53
32    1439.5    3511.15
32    1440    3508.5
32    1440.5    3505.58
32    1441    3502.39
32    1441.5    3498.94
32    1442    3495.22
32    1442.5    3491.24
32    1443    3486.99
32    1443.5    3482.47
32    1444    3477.69
32    1444.5    3472.64
32    1445    3467.33
32    1445.5    3461.76
32    1446    3455.92
32    1446.5    3449.82
32    1447    3443.45
32    1447.5    3436.83
32    1448    3429.94
32    1448.5    3422.79
32    1449    3415.38
32    1449.5    3407.71
32    1450    3399.78
32    1450.5    3391.59
32    1451    3383.14
32    1451.5    3374.44
32    1452    3365.48
32    1452.5    3356.26
32    1453    3346.79
32    1453.5    3337.06
32    1454    3327.08
32    1454.5    3316.84
32    1455    3306.35
32    1455.5    3295.61
32    1456    3284.62
32    1456.5    3273.38
32    1457    3261.89
32    1457.5    3250.15
32    1458    3238.16
32    1458.5    3225.93
32    1459    3213.45
32    1459.5    3200.73
32    1460    3187.76
32    1460.5    3174.55
32    1461    3161.1
32    1461.5    3147.4
32    1462    3133.47
32    1462.5    3119.3
32    1463    3104.89
32    1463.5    3090.25
32    1464    3075.37
32    1464.5    3060.25
32    1465    3044.91
32    1465.5    3029.33
32    1466    3013.52
32    1466.5    2997.48
32    1467    2981.21
32    1467.5    2964.72
32    1468    2947.99
32    1468.5    2931.05
32    1469    2913.88
32    1469.5    2896.49
32    1470    2878.88
32    1470.5    2861.05
32    1471    2843
32    1471.5    2824.74
32    1472    2806.26
32    1472.5    2787.57
32    1473    2768.66
32    1473.5    2749.54
32    1474    2730.22
32    1474.5    2710.68
32    1475    2690.94
32    1475.5    2671
32    1476    2650.85
32    1476.5    2630.5
32    1477    2609.95
32    1477.5    2589.2
32    1478    2568.25
32    1478.5    2547.11
32    1479    2525.78
32    1479.5    2504.25
32    1480    2482.53
32    1480.5    2460.62
32    1481    2438.52
32    1481.5    2416.24
32    1482    2393.78
32    1482.5    2371.13
32    1483    2348.3
32    1483.5    2325.3
32    1484    2302.11
32    1484.5    2278.75
32    1485    2255.22
32    1485.5    2231.51
32    1486    2207.64
32    1486.5    2183.6
32    1487    2159.39
32    1487.5    2135.01
32    1488    2110.48
32    1488.5    2085.78
32    1489    2060.93
32    1489.5    2035.91
32    1490    2010.75
32    1490.5    1985.43
32    1491    1959.95
32    1491.5    1934.33
32    1492    1908.56
32    1492.5    1882.65
32    1493    1856.59
32    1493.5    1830.39
32    1494    1804.06
32    1494.5    1777.58
32    1495    1750.97
32    1495.5    1724.23
32    1496    1697.35
32    1496.5    1670.35
32    1497    1643.21
32    1497.5    1615.96
32    1498    1588.58
32    1498.5    1561.08
32    1499    1533.46
32    1499.5    1505.72
32    1500    1477.87
32    1500.5    1449.9
32    1501    1421.83
32    1501.5    1393.65
32    1502    1365.36
32    1502.5    1336.97
32    1503    1308.47
32    1503.5    1279.88
32    1504    1251.19
32    1504.5    1222.4
32    1505    1193.52
32    1505.5    1164.55
32    1506    1135.49
32    1506.5    1106.34
32    1507    1077.11
32    1507.5    1047.8
32    1508    1018.41
32    1508.5    988.938
32    1509    959.393
32    1509.5    929.775
32    1510    900.086
32    1510.5    870.329
32    1511    840.505
32    1511.5    810.618
32    1512    780.668
32    1512.5    750.659
32    1513    720.593
32    1513.5    690.472
32    1514    660.299
32    1514.5    630.075
32    1515    599.803
32    1515.5    569.486
32    1516    539.125
32    1516.5    508.723
32    1517    478.283
32    1517.5    447.806
32    1518    417.295
32    1518.5    386.752
32    1519    356.179
32    1519.5    325.58
32    1520    294.956
32    1520.5    264.309
32    1521    233.642
32    1521.5    202.957
32    1522    172.257
32    1522.5    141.544
32    1523    110.82
32    1523.5    80.0875
32    1524    49.349
32    1524.5    18.6067
32    1525    -12.1371
32    1525.5    -42.8799
32    1526    -73.6194
32    1526.5    -104.353
32    1527    -135.079
32    1527.5    -165.795
32    1528    -196.498
32    1528.5    -227.186
32    1529    -257.857
32    1529.5    -288.508
32    1530    -319.137
32    1530.5    -349.742
32    1531    -380.32
32    1531.5    -410.87
32    1532    -441.388
32    1532.5    -471.872
32    1533    -502.321
32    1533.5    -532.731
32    1534    -563.1
32    1534.5    -593.427
32    1535    -623.709
32    1535.5    -653.943
32    1536    -684.127
32    1536.5    -714.259
32    1537    -744.337
32    1537.5    -774.358
32    1538    -804.32
32    1538.5    -834.221
32    1539    -864.058
32    1539.5    -893.83
32    1540    -923.533
32    1540.5    -953.166
32    1541    -982.727
32    1541.5    -1012.21
32    1542    -1041.62
32    1542.5    -1070.95
32    1543    -1100.2
32    1543.5    -1129.36
32    1544    -1158.44
32    1544.5    -1187.43
32    1545    -1216.33
32    1545.5    -1245.14
32    1546    -1273.85
32    1546.5    -1302.46
32    1547    -1330.98
32    1547.5    -1359.39
32    1548    -1387.7
32    1548.5    -1415.91
32    1549    -1444.01
32    1549.5    -1471.99
32    1550    -1499.87
32    1550.5    -1527.63
32    1551    -1555.27
32    1551.5    -1582.8
32    1552    -1610.21
32    1552.5    -1637.49
32    1553    -1664.65
32    1553.5    -1691.68
32    1554    -1718.58
32    1554.5    -1745.35
32    1555    -1771.99
32    1555.5    -1798.5
32    1556    -1824.86
32    1556.5    -1851.09
32    1557    -1877.18
32    1557.5    -1903.12
32    1558    -1928.92
32    1558.5    -1954.57
32    1559    -1980.08
32    1559.5    -2005.43
32    1560    -2030.63
32    1560.5    -2055.68
32    1561    -2080.56
32    1561.5    -2105.29
32    1562    -2129.86
32    1562.5    -2154.27
32    1563    -2178.52
32    1563.5    -2202.59
32    1564    -2226.5
32    1564.5    -2250.25
32    1565    -2273.81
32    1565.5    -2297.21
32    1566    -2320.43
32    1566.5    -2343.48
32    1567    -2366.34
32    1567.5    -2389.03
32    1568    -2411.53
32    1568.5    -2433.85
32    1569    -2455.99
32    1569.5    -2477.93
32    1570    -2499.69
32    1570.5    -2521.26
32    1571    -2542.64
32    1571.5    -2563.82
32    1572    -2584.81
32    1572.5    -2605.6
32    1573    -2626.19
32    1573.5    -2646.59
32    1574    -2666.78
32    1574.5    -2686.76
32    1575    -2706.55
32    1575.5    -2726.12
32    1576    -2745.49
32    1576.5    -2764.65
32    1577    -2783.6
32    1577.5    -2802.34
32    1578    -2820.87
32    1578.5    -2839.18
32    1579    -2857.27
32    1579.5    -2875.15
32    1580    -2892.8
32    1580.5    -2910.24
32    1581    -2927.46
32    1581.5    -2944.45
32    1582    -2961.22
32    1582.5    -2977.76
32    1583    -2994.07
32    1583.5    -3010.16
32    1584    -3026.02
32    1584.5    -3041.65
32    1585    -3057.04
32    1585.5    -3072.21
32    1586    -3087.14
32    1586.5    -3101.83
32    1587    -3116.29
32    1587.5    -3130.51
32    1588    -3144.49
32    1588.5    -3158.24
32    1589    -3171.74
32    1589.5    -3185
32    1590    -3198.02
32    1590.5    -3210.79
32    1591    -3223.32
32    1591.5    -3235.61
32    1592    -3247.65
32    1592.5    -3259.44
32    1593    -3270.98
32    1593.5    -3282.27
32    1594    -3293.32
32    1594.5    -3304.11
32    1595    -3314.65
32    1595.5    -3324.94
32    1596    -3334.98
32    1596.5    -3344.76
32    1597    -3354.29
32    1597.5    -3363.56
32    1598    -3372.57
32    1598.5    -3381.33
32    1599    -3389.83
32    1599.5    -3398.08
32    1600    -3406.06
32    1600.5    -3413.79
32    1601    -3421.25
32    1601.5    -3428.46
32    1602    -3435.4
32    1602.5    -3442.08
32    1603    -3448.5
32    1603.5    -3454.66
32    1604    -3460.55
32    1604.5    -3466.18
32    1605    -3471.55
32    1605.5    -3476.65
32    1606    -3481.49
32    1606.5    -3486.06
32    1607    -3490.37
32    1607.5    -3494.41
32    1608    -3498.18
32    1608.5    -3501.69
32    1609    -3504.93
32    1609.5    -3507.91
32    1610    -3510.61
32    1610.5    -3513.05
32    1611    -3515.23
32    1611.5    -3517.13
32    1612    -3518.77
32    1612.5    -3520.14
32    1613    -3521.24
32    1613.5    -3522.07
32    1614    -3522.64
32    1614.5    -3522.93
32    1615    -3522.96
32    1615.5    -3522.72
32    1616    -3522.21
32    1616.5    -3521.44
32    1617    -3520.39
32    1617.5    -3519.08
32    1618    -3517.5
32    1618.5    -3515.65
32    1619    -3513.53
32    1619.5    -3511.15
32    1620    -3508.5
32    1620.5    -3505.58
32    1621    -3502.39
32    1621.5    -3498.94
32    1622    -3495.22
32    1622.5    -3491.24
32    1623    -3486.99
32    1623.5    -3482.47
32    1624    -3477.69
32    1624.5    -3472.64
32    1625    -3467.33
32    1625.5    -3461.76
32    1626    -3455.92
32    1626.5    -3449.82
32    1627    -3443.45
32    1627.5    -3436.83
32    1628    -3429.94
32    1628.5    -3422.79
32    1629    -3415.38
32    1629.5    -3407.71
32    1630    -3399.78
32    1630.5    -3391.59
32    1631    -3383.14
32    1631.5    -3374.44
32    1632    -3365.48
32    1632.5    -3356.26
32    1633    -3346.79
32    1633.5    -3337.06
32    1634    -3327.08
32    1634.5    -3316.84
32    1635    -3306.35
32    1635.5    -3295.61
32    1636    -3284.62
32    1636.5    -3273.38
32    1637    -3261.89
32    1637.5    -3250.15
32    1638    -3238.16
32    1638.5    -3225.93
32    1639    -3213.45
32    1639.5    -3200.73
32    1640    -3187.76
32    1640.5    -3174.55
32    1641    -3161.1
32    1641.5    -3147.4
32    1642    -3133.47
32    1642.5    -3119.3
32    1643    -3104.89
32    1643.5    -3090.25
32    1644    -3075.37
32    1644.5    -3060.25
32    1645    -3044.91
32    1645.5    -3029.33
32    1646    -3013.52
32    1646.5    -2997.48
32    1647    -2981.21
32    1647.5    -2964.72
32    1648    -2947.99
32    1648.5    -2931.05
32    1649    -2913.88
32    1649.5    -2896.49
32    1650    -2878.88
32    1650.5    -2861.05
32    1651    -2843
32    1651.5    -2824.74
32    1652    -2806.26
32    1652.5    -2787.57
32    1653    -2768.66
32    1653.5    -2749.54
32    1654    -2730.22
32    1654.5    -2710.68
32    1655    -2690.94
32    1655.5    -2671
32    1656    -2650.85
32    1656.5    -2630.5
32    1657    -2609.95
32    1657.5    -2589.2
32    1658    -2568.25
32    1658.5    -2547.11
32    1659    -2525.78
32    1659.5    -2504.25
32    1660    -2482.53
32    1660.5    -2460.62
32    1661    -2438.52
32    1661.5    -2416.24
32    1662    -2393.78
32    1662.5    -2371.13
32    1663    -2348.3
32    1663.5    -2325.3
32    1664    -2302.11
32    1664.5    -2278.75
32    1665    -2255.22
32    1665.5    -2231.51
32    1666    -2207.64
32    1666.5    -2183.6
32    1667    -2159.39
32    1667.5    -2135.01
32    1668    -2110.48
32    1668.5    -2085.78
32    1669    -2060.93
32    1669.5    -2035.91
32    1670    -2010.75
32    1670.5    -1985.43
32    1671    -1959.95
32    1671.5    -1934.33
32    1672    -1908.56
32    1672.5    -1882.65
32    1673    -1856.59
32    1673.5    -1830.39
32    1674    -1804.06
32    1674.5    -1777.58
32    1675    -1750.97
32    1675.5    -1724.23
32    1676    -1697.35
32    1676.5    -1670.35
32    1677    -1643.21
32    1677.5    -1615.96
32    1678    -1588.58
32    1678.5    -1561.08
32    1679    -1533.46
32    1679.5    -1505.72
32    1680    -1477.87
32    1680.5    -1449.9
32    1681    -1421.83
32    1681.5    -1393.65
32    1682    -1365.36
32    1682.5    -1336.97
32    1683    -1308.47
32    1683.5    -1279.88
32    1684    -1251.19
32    1684.5    -1222.4
32    1685    -1193.52
32    1685.5    -1164.55
32    1686    -1135.49
32    1686.5    -1106.34
32    1687    -1077.11
32    1687.5    -1047.8
32    1688    -1018.41
32    1688.5    -988.938
32    1689    -959.393
32    1689.5    -929.775
32    1690    -900.087
32    1690.5    -870.329
32    1691    -840.505
32    1691.5    -810.618
32    1692    -780.668
32    1692.5    -750.659
32    1693    -720.593
32    1693.5    -690.473
32    1694    -660.299
32    1694.5    -630.075
32    1695    -599.804
32    1695.5    -569.486
32    1696    -539.125
32    1696.5    -508.723
32    1697    -478.283
32    1697.5    -447.806
32    1698    -417.295
32    1698.5    -386.752
32    1699    -356.179
32    1699.5    -325.58
32    1700    -294.956
32    1700.5    -264.309
32    1701    -233.642
32    1701.5    -202.957
32    1702    -172.257
32    1702.5    -141.544
32    1703    -110.82
32    1703.5    -80.0877
32    1704    -49.3491
32    1704.5    -18.6068
32    1705    12.1369
32    1705.5    42.8797
32    1706    73.6192
32    1706.5    104.353
32    1707    135.079
32    1707.5    165.795
32    1708    196.498
32    1708.5    227.186
32    1709    257.857
32    1709.5    288.508
32    1710    319.137
32    1710.5    349.742
32    1711    380.32
32    1711.5    410.87
32    1712    441.388
32    1712.5    471.872
32    1713    502.32
32    1713.5    532.731
32    1714    563.1
32    1714.5    593.427
32    1715    623.709
32    1715.5    653.943
32    1716    684.127
32    1716.5    714.259
32    1717    744.337
32    1717.5    774.358
32    1718    804.32
32    1718.5    834.221
32    1719    864.058
32    1719.5    893.83
32    1720    923.533
32    1720.5    953.166
32    1721    982.727
32    1721.5    1012.21
32    1722    1041.62
32    1722.5    1070.95
32    1723    1100.2
32    1723.5    1129.36
32    1724    1158.44
32    1724.5    1187.43
32    1725    1216.33
32    1725.5    1245.14
32    1726    1273.85
32    1726.5    1302.46
32    1727    1330.98
32    1727.5    1359.39
32    1728    1387.7
32    1728.5    1415.91
32    1729    1444.01
32    1729.5    1471.99
32    1730    1499.87
32    1730.5    1527.63
32    1731    1555.27
32    1731.5    1582.8
32    1732    1610.21
32    1732.5    1637.49
32    1733    1664.65
32    1733.5    1691.68
32    1734    1718.58
32    1734.5    1745.35
32    1735    1771.99
32    1735.5    1798.5
32    1736    1824.86
32    1736.5    1851.09
32    1737    1877.18
32    1737.5    1903.12
32    1738    1928.92
32    1738.5    1954.57
32    1739    1980.08
32    1739.5    2005.43
32    1740    2030.63
32    1740.5    2055.68
32    1741    2080.56
32    1741.5    2105.29
32    1742    2129.86
32    1742.5    2154.27
32    1743    2178.52
32    1743.5    2202.59
32    1744    2226.5
32    1744.5    2250.24
32    1745    2273.81
32    1745.5    2297.21
32    1746    2320.43
32    1746.5    2343.48
32    1747    2366.34
32    1747.5    2389.03
32    1748    2411.53
32    1748.5    2433.85
32    1749    2455.99
32    1749.5    2477.93
32    1750    2499.69
32    1750.5    2521.26
32    1751    2542.64
32    1751.5    2563.82
32    1752    2584.81
32    1752.5    2605.6
32    1753    2626.19
32    1753.5    2646.59
32    1754    2666.78
32    1754.5    2686.76
32    1755    2706.55
32    1755.5    2726.12
32    1756    2745.49
32    1756.5    2764.65
32    1757    2783.6
32    1757.5    2802.34
32    1758    2820.87
32    1758.5    2839.18
32    1759    2857.27
32    1759.5    2875.15
32    1760    2892.8
32    1760.5    2910.24
32    1761    2927.46
32    1761.5    2944.45
32    1762    2961.22
32    1762.5    2977.76
32    1763    2994.07
32    1763.5    3010.16
32    1764    3026.02
32    1764.5    3041.65
32    1765    3057.04
32    1765.5    3072.21
32    1766    3087.14
32    1766.5    3101.83
32    1767    3116.29
32    1767.5    3130.51
32    1768    3144.49
32    1768.5    3158.24
32    1769    3171.74
32    1769.5    3185
32    1770    3198.02
32    1770.5    3210.79
32    1771    3223.32
32    1771.5    3235.61
32    1772    3247.65
32    1772.5    3259.44
32    1773    3270.98
32    1773.5    3282.27
32    1774    3293.32
32    1774.5    3304.11
32    1775    3314.65
32    1775.5    3324.94
32    1776    3334.98
32    1776.5    3344.76
32    1777    3354.29
32    1777.5    3363.56
32    1778    3372.57
32    1778.5    3381.33
32    1779    3389.83
32    1779.5    3398.08
32    1780    3406.06
32    1780.5    3413.79
32    1781    3421.25
32    1781.5    3428.46
32    1782    3435.4
32    1782.5    3442.08
32    1783    3448.5
32    1783.5    3454.66
32    1784    3460.55
32    1784.5    3466.18
32    1785    3471.55
32    1785.5    3476.65
32    1786    3481.49
32    1786.5    3486.06
32    1787    3490.37
32    1787.5    3494.41
32    1788    3498.18
32    1788.5    3501.69
32    1789    3504.93
32    1789.5    3507.91
32    1790    3510.61
32    1790.5    3513.05
32    1791    3515.23
32    1791.5    3517.13
32    1792    3518.77
32    1792.5    3520.14
32    1793    3521.24
32    1793.5    3522.07
32    1794    3522.64
32    1794.5    3522.93
32    1795    3522.96
32    1795.5    3522.72
32    1796    3522.21
32    1796.5    3521.44
32    1797    3520.39
32    1797.5    3519.08
32    1798    3517.5
32    1798.5    3515.65
32    1799    3513.53
32    1799.5    3511.15
32    1800    3508.5
32    1800.5    3505.58
32    1801    3502.39
32    1801.5    3498.94
32    1802    3495.22
32    1802.5    3491.24
32    1803    3486.99
32    1803.5    3482.47
32    1804    3477.69
32    1804.5    3472.64
32    1805    3467.33
32    1805.5    3461.76
32    1806    3455.92
32    1806.5    3449.82
32    1807    3443.45
32    1807.5    3436.83
32    1808    3429.94
32    1808.5    3422.79
32    1809    3415.38
32    1809.5    3407.71
32    1810    3399.78
32    1810.5    3391.59
32    1811    3383.14
32    1811.5    3374.44
32    1812    3365.48
32    1812.5    3356.26
32    1813    3346.79
32    1813.5    3337.06
32    1814    3327.08
32    1814.5    3316.84
32    1815    3306.35
32    1815.5    3295.61
32    1816    3284.62
32    1816.5    3273.38
32    1817    3261.89
32    1817.5    3250.15
32    1818    3238.16
32    1818.5    3225.93
32    1819    3213.45
32    1819.5    3200.73
32    1820    3187.76
32    1820.5    3174.55
32    1821    3161.1
32    1821.5    3147.4
32    1822    3133.47
32    1822.5    3119.3
32    1823    3104.89
32    1823.5    3090.25
32    1824    3075.37
32    1824.5    3060.25
32    1825    3044.91
32    1825.5    3029.33
32    1826    3013.52
32    1826.5    2997.48
32    1827    2981.21
32    1827.5    2964.72
32    1828    2947.99
32    1828.5    2931.05
32    1829    2913.88
32    1829.5    2896.49
32    1830    2878.88
32    1830.5    2861.05
32    1831    2843
32    1831.5    2824.74
32    1832    2806.26
32    1832.5    2787.57
32    1833    2768.66
32    1833.5    2749.54
32    1834    2730.22
32    1834.5    2710.68
32    1835    2690.94
32    1835.5    2671
32    1836    2650.85
32    1836.5    2630.5
32    1837    2609.95
32    1837.5    2589.2
32    1838    2568.25
32    1838.5    2547.11
32    1839    2525.78
32    1839.5    2504.25
32    1840    2482.53
32    1840.5    2460.62
32    1841    2438.53
32    1841.5    2416.24
32    1842    2393.78
32    1842.5    2371.13
32    1843    2348.3
32    1843.5    2325.3
32    1844    2302.11
32    1844.5    2278.75
32    1845    2255.22
32    1845.5    2231.51
32    1846    2207.64
32    1846.5    2183.6
32    1847    2159.39
32    1847.5    2135.02
32    1848    2110.48
32    1848.5    2085.78
32    1849    2060.93
32    1849.5    2035.91
32    1850    2010.75
32    1850.5    1985.43
32    1851    1959.95
32    1851.5    1934.33
32    1852    1908.56
32    1852.5    1882.65
32    1853    1856.59
32    1853.5    1830.39
32    1854    1804.06
32    1854.5    1777.58
32    1855    1750.97
32    1855.5    1724.23
32    1856    1697.35
32    1856.5    1670.35
32    1857    1643.21
32    1857.5    1615.96
32    1858    1588.58
32    1858.5    1561.08
32    1859    1533.46
32    1859.5    1505.72
32    1860    1477.87
32    1860.5    1449.9
32    1861    1421.83
32    1861.5    1393.65
32    1862    1365.36
32    1862.5    1336.97
32    1863    1308.47
32    1863.5    1279.88
32    1864    1251.19
32    1864.5    1222.4
32    1865    1193.52
32    1865.5    1164.55
32    1866    1135.49
32    1866.5    1106.34
32    1867    1077.11
32    1867.5    1047.8
32    1868    1018.41
32    1868.5    988.939
32    1869    959.394
32    1869.5    929.776
32    1870    900.087
32    1870.5    870.329
32    1871    840.506
32    1871.5    810.618
32    1872    780.669
32    1872.5    750.66
32    1873    720.594
32    1873.5    690.473
32    1874    660.299
32    1874.5    630.075
32    1875    599.804
32    1875.5    569.486
32    1876    539.126
32    1876.5    508.724
32    1877    478.283
32    1877.5    447.806
32    1878    417.295
32    1878.5    386.752
32    1879    356.18
32    1879.5    325.58
32    1880    294.956
32    1880.5    264.309
32    1881    233.642
32    1881.5    202.958
32    1882    172.258
32    1882.5    141.544
32    1883    110.82
32    1883.5    80.0879
32    1884    49.3493
32    1884.5    18.607
32    1885    -12.1367
32    1885.5    -42.8795
32    1886    -73.619
32    1886.5    -104.353
32    1887    -135.079
32    1887.5    -165.795
32    1888    -196.498
32    1888.5    -227.186
32    1889    -257.857
32    1889.5    -288.508
32    1890    -319.137
32    1890.5    -349.742
32    1891    -380.32
32    1891.5    -410.869
32    1892    -441.387
32    1892.5    -471.872
32    1893    -502.32
32    1893.5    -532.73
32    1894    -563.1
32    1894.5    -593.427
32    1895    -623.708
32    1895.5    -653.942
32    1896    -684.127
32    1896.5    -714.259
32    1897    -744.337
32    1897.5    -774.358
32    1898    -804.32
32    1898.5    -834.221
32    1899    -864.058
32    1899.5    -893.83
32    1900    -923.533
32    1900.5    -953.166
32    1901    -982.727
32    1901.5    -1012.21
32    1902    -1041.62
32    1902.5    -1070.95
32    1903    -1100.2
32    1903.5    -1129.36
32    1904    -1158.44
32    1904.5    -1187.43
32    1905    -1216.33
32    1905.5    -1245.14
32    1906    -1273.85
32    1906.5    -1302.46
32    1907    -1330.98
32    1907.5    -1359.39
32    1908    -1387.7
32    1908.5    -1415.91
32    1909    -1444.01
32    1909.5    -1471.99
32    1910    -1499.87
32    1910.5    -1527.63
32    1911    -1555.27
32    1911.5    -1582.8
32    1912    -1610.21
32    1912.5    -1637.49
32    1913    -1664.65
32    1913.5    -1691.68
32    1914    -1718.58
32    1914.5    -1745.35
32    1915    -1771.99
32    1915.5    -1798.5
32    1916    -1824.86
32    1916.5    -1851.09
32    1917    -1877.18
32    1917.5    -1903.12
32    1918    -1928.92
32    1918.5    -1954.57
32    1919    -1980.08
32    1919.5    -2005.43
32    1920    -2030.63
32    1920.5    -2055.68
32    1921    -2080.56
32    1921.5    -2105.29
32    1922    -2129.86
32    1922.5    -2154.27
32    1923    -2178.52
32    1923.5    -2202.59
32    1924    -2226.5
32    1924.5    -2250.24
32    1925    -2273.81
32    1925.5    -2297.21
32    1926    -2320.43
32    1926.5    -2343.48
32    1927    -2366.34
32    1927.5    -2389.03
32    1928    -2411.53
32    1928.5    -2433.85
32    1929    -2455.99
32    1929.5    -2477.93
32    1930    -2499.69
32    1930.5    -2521.26
32    1931    -2542.64
32    1931.5    -2563.82
32    1932    -2584.81
32    1932.5    -2605.6
32    1933    -2626.19
32    1933.5    -2646.59
32    1934    -2666.78
32    1934.5    -2686.76
32    1935    -2706.55
32    1935.5    -2726.12
32    1936    -2745.49
32    1936.5    -2764.65
32    1937    -2783.6
32    1937.5    -2802.34
32    1938    -2820.87
32    1938.5    -2839.18
32    1939    -2857.27
32    1939.5    -2875.15
32    1940    -2892.8
32    1940.5    -2910.24
32    1941    -2927.46
32    1941.5    -2944.45
32    1942    -2961.22
32    1942.5    -2977.76
32    1943    -2994.07
32    1943.5    -3010.16
32    1944    -3026.02
32    1944.5    -3041.65
32    1945    -3057.04
32    1945.5    -3072.21
32    1946    -3087.14
32    1946.5    -3101.83
32    1947    -3116.29
32    1947.5    -3130.51
32    1948    -3144.49
32    1948.5    -3158.24
32    1949    -3171.74
32    1949.5    -3185
32    1950    -3198.02
32    1950.5    -3210.79
32    1951    -3223.32
32    1951.5    -3235.61
32    1952    -3247.65
32    1952.5    -3259.44
32    1953    -3270.98
32    1953.5    -3282.27
32    1954    -3293.32
32    1954.5    -3304.11
32    1955    -3314.65
32    1955.5    -3324.94
32    1956    -3334.98
32    1956.5    -3344.76
32    1957    -3354.29
32    1957.5    -3363.56
32    1958    -3372.57
32    1958.5    -3381.33
32    1959    -3389.83
32    1959.5    -3398.08
32    1960    -3406.06
32    1960.5    -3413.79
32    1961    -3421.25
32    1961.5    -3428.46
32    1962    -3435.4
32    1962.5    -3442.08
32    1963    -3448.5
32    1963.5    -3454.66
32    1964    -3460.55
32    1964.5    -3466.18
32    1965    -3471.55
32    1965.5    -3476.65
32    1966    -3481.49
32    1966.5    -3486.06
32    1967    -3490.37
32    1967.5    -3494.41
32    1968    -3498.18
32    1968.5    -3501.69
32    1969    -3504.93
32    1969.5    -3507.91
32    1970    -3510.61
32    1970.5    -3513.05
32    1971    -3515.23
32    1971.5    -3517.13
32    1972    -3518.77
32    1972.5    -3520.14
32    1973    -3521.24
32    1973.5    -3522.07
32    1974    -3522.64
32    1974.5    -3522.93
32    1975    -3522.96
32    1975.5    -3522.72
32    1976    -3522.21
32    1976.5    -3521.44
32    1977    -3520.39
32    1977.5    -3519.08
32    1978    -3517.5
32    1978.5    -3515.65
32    1979    -3513.53
32    1979.5    -3511.15
32    1980    -3508.5
32    1980.5    -3505.58
32    1981    -3502.39
32    1981.5    -3498.94
32    1982    -3495.22
32    1982.5    -3491.24
32    1983    -3486.99
32    1983.5    -3482.47
32    1984    -3477.69
32    1984.5    -3472.64
32    1985    -3467.33
32    1985.5    -3461.76
32    1986    -3455.92
32    1986.5    -3449.82
32    1987    -3443.45
32    1987.5    -3436.83
32    1988    -3429.94
32    1988.5    -3422.79
32    1989    -3415.38
32    1989.5    -3407.71
32    1990    -3399.78
32    1990.5    -3391.59
32    1991    -3383.14
32    1991.5    -3374.44
32    1992    -3365.48
32    1992.5    -3356.26
32    1993    -3346.79
32    1993.5    -3337.06
32    1994    -3327.08
32    1994.5    -3316.84
32    1995    -3306.35
32    1995.5    -3295.61
32    1996    -3284.62
32    1996.5    -3273.38
32    1997    -3261.89
32    1997.5    -3250.15
32    1998    -3238.16
32    1998.5    -3225.93
32    1999    -3213.45
32    1999.5    -3200.73
